0
AT
1
5
0
4
0
0
0
0
0
1
100
0
0
0
0
0
1

600
0
0
0
1
400
0
0
2
1
20
1
0
50
0
0
16
0
0
-1
$Torpedo$
0
1
50
2
Human Mod 2 Tube
0
50
0
75
$Torpedo$
0
1
50
1
Human Mod 2 Tube
0
50
180
75
$Beam$
5
5
3
Laser Emitter
0
0
10
3
7
1
0
55
$Beam$
5
5
1
Laser Emitter
0
0
10
3
7
1
20
55
$Beam$
5
5
1
Laser Emitter
0
0
10
3
7
1
180
55
$Beam$
5
5
1
Laser Emitter
0
0
10
3
7
1
340
55
$END_OF_SHIPDATA$
1
Agamemnon
1
10
3
2
10
10
10
10
10
10
6000
1000
0
0
0
0
25

800
4
1
1
1
4200
9
1
2
1
80
1
3
800
0
0
305
1
2
10
$Torpedo$
12
1
12
3
TK Pulsefire
0
45
0
60
$Beam$
12
7
11
Laser Array
0
0
30
8
12
1
0
90
$Beam$
12
7
1
Laser Array
0
0
30
8
12
1
180
90
$END_OF_SHIPDATA$
2
Barracuda
1
5
1
7
8
8
9
8
8
8
4000
400
0
0
0
0
10

400
4
0
0
1
3400
6
1
3
2
60
2
1
100
0
0
93
9
0
-1
$Torpedo$
3
3
50
2
Type 2 Burstfire
0
40
0
100
$Beam$
8
6
8
Laser Bank
0
0
15
5
10
1
0
80
$Beam$
8
6
3
Laser Bank
0
0
15
5
10
1
180
80
$END_OF_SHIPDATA$
3
Belvedere
1
6
2
5
6
6
6
7
6
6
3000
400
0
0
0
0
7

350
2
0
0
1
2000
5
1
3
1
70
1
1
120
0
0
60
6
0
24
$Torpedo$
3
2
50
2
Type 1 Burstfire
0
40
0
95
$Beam$
6
13
2
Pulse Laser Cannon
0
0
10
1
14
3
0
75
$Beam$
8
7
2
Laser Array
0
0
30
8
12
1
0
90
$END_OF_SHIPDATA$
4
Benton
1
5
1
5
4
5
5
4
4
4
2000
300
0
0
0
0
8

200
2
0
0
1
1700
4
0
3
0
60
1
2
200
0
0
47
7
0
0
$Torpedo$
3
1
30
1
Standard Tube
0
45
0
90
$Torpedo$
3
1
30
1
Standard Tube
0
45
180
90
$Beam$
6
6
3
Laser Bank
0
0
15
5
10
1
0
80
$Beam$
6
6
3
Laser Bank
0
0
15
5
10
1
180
80
$END_OF_SHIPDATA$
5
Cherumir
1
1
1
1
6
5
5
5
5
4
1500
200
0
0
0
0
5

500
2
0
0
0
4000
1
0
2
1
0
0
0
0
2
0
46
0
0
27
$END_OF_SHIPDATA$
6
Chilmark
1
9
2
2
2
2
3
2
3
3
2000
200
0
0
0
0
8

700
0
0
0
1
3000
2
0
2
1
60
1
0
200
0
0
61
1
0
-1
$Torpedo$
3
1
40
2
2nd class Tube
0
50
0
80
$Beam$
6
5
4
Laser Emitter
0
0
10
3
7
1
0
55
$Beam$
6
5
1
Laser Emitter
0
0
10
3
7
1
20
55
$Beam$
6
5
1
Laser Emitter
0
0
10
3
7
1
340
55
$Beam$
6
5
1
Laser Emitter
0
0
10
3
7
1
160
55
$Beam$
6
5
1
Laser Emitter
0
0
10
3
7
1
200
55
$END_OF_SHIPDATA$
7
Duluth
1
9
3
1
6
6
7
6
7
7
4000
300
0
0
0
0
20

1000
2
1
0
1
9000
7
1
2
0
80
1
2
1000
0
0
187
3
9
6
$Torpedo$
3
3
50
2
Type 2 Burstfire
0
40
0
100
$Beam$
10
7
10
Laser Array
0
0
30
8
12
1
0
90
$Beam$
10
7
1
Laser Array
0
0
30
8
12
1
180
90
$END_OF_SHIPDATA$
8
Duluth II
1
9
3
2
11
11
11
12
11
12
4500
500
0
0
0
0
22

1500
2
1
1
0
10000
8
1
3
1
100
2
2
1000
0
0
192
3
9
7
$Torpedo$
3
3
50
2
Type 2 Burstfire
0
40
0
100
$Beam$
10
7
10
Laser Array
0
0
30
8
12
1
0
90
$Beam$
10
7
1
Laser Array
0
0
30
8
12
1
180
90
$END_OF_SHIPDATA$
9
Farscape
1
3
0
6
0
0
0
0
0
0
0
0
0
0
0
0
1

100
0
0
0
0
100
0
0
1
2
60
1
1
0
0
0
4
9
0
-1
$Torpedo$
0
1
50
1
Human Mod 2 Tube
0
50
0
75
$Beam$
5
5
1
Laser Emitter
0
0
10
3
7
1
0
55
$Beam$
5
5
1
Laser Emitter
0
0
10
3
7
1
180
55
$END_OF_SHIPDATA$
10
Firefly
1
9
2
2
6
6
6
6
6
7
3500
300
0
0
0
0
12

900
0
1
0
1
7000
6
1
2
1
80
2
1
900
0
0
145
2
1
-1
$Torpedo$
3
2
50
3
Type 1 Burstfire
0
40
0
95
$Torpedo$
3
1
30
1
Standard Tube
0
45
180
90
$Beam$
10
7
7
Laser Array
0
0
30
8
12
1
0
90
$Beam$
10
7
1
Laser Array
0
0
30
8
12
1
180
90
$END_OF_SHIPDATA$
11
Fox
1
0
0
1
0
0
0
0
0
0
700
500
0
0
0
0
1

300
0
0
0
1
600
1
0
1
1
0
0
0
5000
0
1
9
0
0
-1
$END_OF_SHIPDATA$
12
Hathaway
1
8
1
5
2
2
2
2
2
2
500
0
0
0
0
0
4

400
0
0
0
1
2000
2
0
2
0
60
0
1
100
0
0
46
6
7
-1
$Beam$
8
5
9
Laser Emitter
0
0
10
3
7
1
0
55
$Beam$
8
5
2
Laser Emitter
0
0
10
3
7
1
20
55
$Beam$
8
5
2
Laser Emitter
0
0
10
3
7
1
340
55
$Beam$
8
5
1
Laser Emitter
0
0
10
3
7
1
160
55
$Beam$
8
5
1
Laser Emitter
0
0
10
3
7
1
200
55
$Beam$
8
5
3
Laser Emitter
0
0
10
3
7
1
180
55
$END_OF_SHIPDATA$
13
Ignition
1
8
2
3
5
5
5
5
5
6
7000
300
0
0
0
0
8

400
2
0
0
1
2400
4
0
2
1
60
1
1
200
0
0
54
2
0
12
$Torpedo$
4
2
10
3
TK Microtube
1
45
0
180
$Torpedo$
3
1
30
1
Standard Tube
0
45
0
90
$Beam$
8
6
4
Laser Bank
0
0
15
5
10
1
0
80
$END_OF_SHIPDATA$
14
Lamprey
1
0
1
1
5
5
5
5
5
5
1500
500
0
0
0
0
5

500
0
0
0
0
3000
2
0
2
1
20
0
0
7500
0
2
29
0
0
11
$END_OF_SHIPDATA$
15
Longeye
1
3
1
6
8
8
8
8
8
8
3000
300
0
0
0
0
6

200
2
0
0
1
2000
7
1
4
2
100
3
2
90
0
0
54
9
0
17
$Torpedo$
3
1
30
2
Standard Tube
0
45
0
90
$Beam$
8
6
3
Laser Bank
0
0
15
5
10
1
0
80
$Beam$
8
6
1
Laser Bank
0
0
15
5
10
1
180
80
$END_OF_SHIPDATA$
16
Matilda
1
7
2
2
4
4
4
4
4
4
4000
300
0
0
0
0
10

800
0
0
0
1
4000
4
0
2
1
60
1
2
300
0
0
86
1
0
-1
$Torpedo$
3
1
30
1
Standard Tube
0
45
0
90
$Torpedo$
3
1
30
1
Standard Tube
0
45
180
90
$Beam$
8
6
8
Laser Bank
0
0
15
5
10
1
0
80
$Beam$
8
6
2
Laser Bank
0
0
15
5
10
1
180
80
$END_OF_SHIPDATA$
17
Mole
1
3
2
6
5
5
5
5
6
6
600
90
0
0
0
0
3

200
0
0
0
1
1800
5
0
3
2
60
1
0
20
0
0
43
5
0
9
$Torpedo$
3
1
30
1
Standard Tube
0
45
0
90
$Beam$
7
6
3
Laser Bank
0
0
15
5
10
1
0
80
$END_OF_SHIPDATA$
18
Montgomery
1
7
2
2
6
5
5
5
6
5
4000
1000
0
0
0
0
12

860
2
0
0
1
5000
5
0
2
1
70
1
2
700
0
0
105
3
0
22
$Torpedo$
3
2
50
2
Type 1 Burstfire
0
40
0
95
$Beam$
9
6
6
Laser Bank
0
0
15
5
10
1
0
80
$Beam$
9
6
2
Laser Bank
0
0
15
5
10
1
180
80
$Beam$
9
6
1
Laser Bank
0
0
15
5
10
1
30
80
$Beam$
9
6
1
Laser Bank
0
0
15
5
10
1
330
80
$END_OF_SHIPDATA$
19
Outpost 1
1
12
3
0
0
0
0
0
0
0
10
0
0
0
0
0
1

2900
0
1
0
1
5200
1
0
0
0
62
2
0
0
0
0
11
0
0
-1
$Torpedo$
0
1
50
9
Human Mod 2 Tube
0
50
0
75
$Torpedo$
0
1
50
3
Human Mod 2 Tube
0
50
180
75
$Beam$
6
5
4
Laser Emitter
0
0
10
3
7
1
0
55
$Beam$
6
5
4
Laser Emitter
0
0
10
3
7
1
20
55
$Beam$
6
5
4
Laser Emitter
0
0
10
3
7
1
340
55
$Beam$
6
5
4
Laser Emitter
0
0
10
3
7
1
180
55
$END_OF_SHIPDATA$
20
Outpost 2
1
12
3
0
4
4
4
4
4
4
15
0
0
0
0
0
1

5000
2
1
0
1
15000
5
0
0
0
70
2
0
0
0
0
29
6
0
-1
$Torpedo$
3
1
30
4
Standard Tube
0
45
0
90
$Torpedo$
3
1
30
2
Standard Tube
0
45
180
90
$Beam$
10
6
12
Laser Bank
0
0
15
5
10
1
0
80
$Beam$
10
6
4
Laser Bank
0
0
15
5
10
1
180
80
$Beam$
10
6
2
Laser Bank
0
0
15
5
10
1
30
80
$Beam$
10
6
2
Laser Bank
0
0
15
5
10
1
330
80
$END_OF_SHIPDATA$
21
Outpost 3
1
12
3
0
8
8
8
8
8
8
20
0
0
0
0
0
1

9000
2
1
1
1
24000
8
1
0
0
110
3
0
0
0
0
65
6
0
-1
$Torpedo$
12
4
50
6
Type 3 Burstfire
0
40
0
110
$Torpedo$
12
4
50
2
Type 3 Burstfire
0
40
180
110
$Beam$
12
7
16
Laser Array
0
0
30
8
12
1
0
90
$Beam$
12
7
6
Laser Array
0
0
30
8
12
1
180
90
$END_OF_SHIPDATA$
22
Panslaight
1
7
1
2
4
3
3
4
4
3
2000
200
0
0
0
0
8

600
0
0
0
1
3000
3
0
2
1
60
1
1
100
0
0
60
2
0
-1
$Torpedo$
3
1
40
2
2nd class Tube
0
50
0
80
$Beam$
8
6
4
Laser Bank
0
0
15
5
10
1
0
80
$Beam$
8
6
1
Laser Bank
0
0
15
5
10
1
30
80
$Beam$
8
6
1
Laser Bank
0
0
15
5
10
1
330
80
$Beam$
8
6
2
Laser Bank
0
0
15
5
10
1
180
80
$END_OF_SHIPDATA$
23
Patton
1
9
3
3
7
7
7
7
7
7
7000
1000
200
200
0
0
15

700
2
1
1
1
4000
7
1
3
1
70
1
2
500
0
0
168
2
0
-1
$Torpedo$
3
4
50
3
Type 3 Burstfire
0
40
0
110
$Torpedo$
3
3
50
2
Type 2 Burstfire
0
40
180
100
$Beam$
10
7
6
Laser Array
0
0
30
8
12
1
0
90
$END_OF_SHIPDATA$
24
Peraine
1
6
1
4
1
1
1
1
1
1
500
200
0
0
0
0
4

300
0
0
0
1
1900
1
0
2
1
20
0
1
50
0
0
29
6
0
-1
$Torpedo$
0
1
40
1
2nd class Tube
0
50
0
80
$Torpedo$
0
1
40
1
2nd class Tube
0
50
180
80
$Beam$
6
5
4
Laser Emitter
0
0
10
3
7
1
0
55
$END_OF_SHIPDATA$
25
Peregrine
1
4
1
8
7
7
7
7
7
7
500
0
0
0
0
0
1

100
2
0
0
1
560
7
0
2
0
40
1
3
0
0
0
23
5
0
-1
$Torpedo$
4
1
3
1
Rapidfire Microtube
1
40
0
60
$Beam$
6
13
2
Pulse Laser Cannon
0
0
10
1
14
3
0
75
$END_OF_SHIPDATA$
26
Pittsburgh
1
1
2
2
8
8
8
9
8
8
3000
500
0
0
0
0
10

1000
0
0
0
0
6000
6
1
3
1
0
0
0
0
3
0
83
0
0
5
$END_OF_SHIPDATA$
27
Seraphine
1
1
0
1
0
0
0
0
0
0
300
0
0
0
0
0
1

200
0
0
0
0
400
1
0
1
1
0
0
0
0
1
0
6
0
0
-1
$END_OF_SHIPDATA$
28
Sputnik
1
2
0
0
255
255
255
255
255
255
100
0
0
0
0
0
1

10
0
0
0
0
0
1
0
1
2
25
2
0
0
0
0
0
0
0
-1
$END_OF_SHIPDATA$
29
Starbase 1
1
13
3
0
2
2
2
2
2
2
10
0
0
0
0
0
1

10000
0
1
0
1
22500
3
0
0
0
70
2
0
0
0
0
39
3
0
-1
$Torpedo$
3
1
40
6
2nd class Tube
0
50
0
80
$Torpedo$
3
1
40
2
2nd class Tube
0
50
180
80
$Beam$
8
5
10
Laser Emitter
0
0
10
3
7
1
0
55
$Beam$
8
5
6
Laser Emitter
0
0
10
3
7
1
180
55
$Beam$
8
5
5
Laser Emitter
0
0
10
3
7
1
20
55
$Beam$
8
5
5
Laser Emitter
0
0
10
3
7
1
340
55
$END_OF_SHIPDATA$
30
Starbase 2
1
13
3
0
6
6
6
6
6
6
20
0
0
0
0
0
1

11000
2
1
0
1
28000
6
1
0
0
110
3
0
0
0
0
62
3
0
-1
$Torpedo$
3
3
50
8
Type 2 Burstfire
0
40
0
100
$Torpedo$
3
3
50
2
Type 2 Burstfire
0
40
180
100
$Beam$
12
7
26
Laser Array
0
0
30
8
12
1
0
90
$Beam$
12
7
8
Laser Array
0
0
30
8
12
1
180
90
$END_OF_SHIPDATA$
31
Starbase 3
1
13
3
0
10
10
10
10
10
10
40
0
0
0
0
0
1

25000
4
1
1
1
46000
10
1
0
0
150
4
0
0
0
0
189
3
0
-1
$Torpedo$
12
4
40
15
Type 4 Burstfire
0
40
0
120
$Torpedo$
12
4
40
5
Type 4 Burstfire
0
40
180
120
$Beam$
12
7
40
Laser Array
0
0
30
8
12
1
0
90
$Beam$
12
7
12
Laser Array
0
0
30
8
12
1
180
90
$END_OF_SHIPDATA$
32
Titan
1
0
2
1
8
8
8
8
8
8
2000
1000
0
0
0
0
10

2000
0
0
0
0
4000
6
0
3
1
40
1
0
12500
0
3
68
0
0
-1
$END_OF_SHIPDATA$
33
Titan II
1
0
2
2
10
10
10
11
10
10
2500
1500
0
0
0
0
12

2500
0
0
0
0
5000
8
0
3
1
45
1
0
15000
0
3
87
0
0
32
$END_OF_SHIPDATA$
34
Titan III
1
0
2
3
13
13
13
14
13
13
4500
2000
0
0
0
0
15

5000
0
0
0
0
8000
8
0
4
2
60
2
0
20000
0
3
144
0
0
33
$END_OF_SHIPDATA$
35
Ultima One
1
11
3
1
9
9
9
9
10
9
10000
2000
0
0
0
0
25

1800
4
1
1
1
10000
9
1
2
0
90
1
2
800
0
0
304
3
1
16
$Torpedo$
3
3
50
3
Type 2 Burstfire
0
40
0
100
$Torpedo$
12
1
12
1
TK Pulsefire
0
45
0
60
$Torpedo$
3
4
50
1
Type 3 Burstfire
0
40
180
110
$Beam$
12
7
10
Laser Array
0
0
30
8
12
1
0
90
$Beam$
12
7
2
Laser Array
0
0
30
8
12
1
180
90
$END_OF_SHIPDATA$
36
Valkyrie
1
8
1
4
8
8
8
9
8
9
8000
400
0
0
0
0
10

400
2
1
1
1
3000
7
1
3
1
70
1
3
50
0
0
127
8
0
-1
$Torpedo$
12
4
50
1
Type 3 Burstfire
0
40
0
110
$Torpedo$
12
4
50
1
Type 3 Burstfire
0
40
180
110
$Beam$
6
13
4
Pulse Laser Cannon
0
0
10
1
14
3
0
75
$END_OF_SHIPDATA$
37
Wolf
1
5
2
6
7
8
7
7
7
7
3000
500
0
0
0
0
10

220
2
0
0
1
1800
7
1
3
0
60
1
2
200
0
0
76
7
0
4
$Torpedo$
3
3
50
2
Type 2 Burstfire
0
40
0
100
$Torpedo$
3
1
30
1
Standard Tube
0
45
180
90
$Beam$
8
7
3
Laser Array
0
0
30
8
12
1
0
90
$Beam$
8
7
1
Laser Array
0
0
30
8
12
1
180
90
$END_OF_SHIPDATA$
38
Baran
2
3
0
6
0
0
0
0
0
0
0
0
0
0
0
0
1

80
0
0
0
0
160
0
0
1
2
60
1
1
0
0
0
3
9
0
-1
$Torpedo$
14
1
80
1
Hanuhr Basic Tube
0
45
0
90
$Beam$
4
7
1
Forced Plasma Emitter
0
0
10
3
5
1
0
70
$END_OF_SHIPDATA$
39
Baran II
2
3
0
7
5
5
6
6
5
5
0
0
0
0
0
0
2

180
0
0
0
0
1000
4
0
2
2
80
2
2
0
0
0
14
9
0
38
$Torpedo$
14
1
60
1
Hanuhr Improved Tube
0
50
0
120
$Torpedo$
14
1
60
1
Hanuhr Improved Tube
0
50
180
120
$Beam$
8
7
2
Forced Plasma Emitter
0
0
10
3
5
1
0
70
$Beam$
8
7
1
Forced Plasma Emitter
0
0
10
3
5
1
180
70
$END_OF_SHIPDATA$
40
Baran III
2
3
0
8
8
8
8
9
9
8
0
0
0
0
0
0
3

200
2
0
0
0
1800
7
1
3
2
120
3
3
0
0
0
39
9
0
39
$Torpedo$
15
1
30
2
Hanuhr Advanced Tube
0
55
0
150
$Torpedo$
15
1
30
1
Hanuhr Advanced Tube
0
55
180
150
$Beam$
10
13
2
Pulse Plasma Cannon
0
0
10
1
14
3
0
90
$Beam$
10
13
1
Pulse Plasma Cannon
0
0
10
1
14
3
180
90
$END_OF_SHIPDATA$
41
Garor
2
10
3
1
6
7
6
6
7
7
0
0
0
0
0
0
10

600
2
1
0
0
3000
6
1
2
1
50
1
1
400
0
0
65
3
1
-1
$Torpedo$
15
1
30
3
Hanuhr Advanced Tube
0
55
0
150
$Torpedo$
15
1
30
1
Hanuhr Advanced Tube
0
55
180
150
$Beam$
12
7
3
Forced Plasma Bank
0
0
15
5
10
1
0
110
$Beam$
12
7
1
Forced Plasma Bank
0
0
15
5
10
1
180
110
$END_OF_SHIPDATA$
42
Glantor
2
0
0
1
0
0
0
0
0
0
650
500
0
0
0
0
1

200
0
0
0
0
400
0
0
1
1
0
0
0
4000
0
1
2
0
0
-1
$END_OF_SHIPDATA$
43
Glantor II
2
0
0
1
5
5
5
5
5
5
1400
500
0
0
0
0
3

400
0
0
0
0
800
1
0
2
1
0
0
0
7000
0
2
6
0
0
42
$END_OF_SHIPDATA$
44
Glantor III
2
0
1
1
9
8
8
9
8
8
1850
1000
0
0
0
0
7

800
0
0
0
0
1200
4
0
3
1
20
0
0
10000
0
2
13
0
0
43
$END_OF_SHIPDATA$
45
Glantor IV
2
0
2
2
13
12
12
13
12
12
4000
1500
0
0
0
0
10

1200
0
0
0
0
1500
6
0
4
1
40
1
0
12500
0
3
19
0
0
44
$END_OF_SHIPDATA$
46
Golon
2
8
1
3
4
5
5
5
4
4
0
0
0
0
0
0
3

225
0
0
0
1
1500
4
0
2
1
50
1
1
0
0
0
18
8
7
57
$Torpedo$
14
1
80
2
Hanuhr Basic Tube
0
45
0
90
$Torpedo$
14
1
80
1
Hanuhr Basic Tube
0
45
180
90
$Beam$
7
7
2
Forced Plasma Bank
0
0
15
5
10
1
0
110
$Beam$
7
7
1
Forced Plasma Bank
0
0
15
5
10
1
180
110
$END_OF_SHIPDATA$
47
Golon II
2
8
3
5
13
13
13
14
13
13
500
200
0
0
0
100
8

1200
2
1
0
1
3500
7
0
4
2
70
2
1
0
0
0
18
8
7
46
$Torpedo$
14
1
80
2
Hanuhr Basic Tube
0
45
0
90
$Torpedo$
14
1
80
1
Hanuhr Basic Tube
0
45
180
90
$Beam$
7
7
2
Forced Plasma Bank
0
0
15
5
10
1
0
110
$Beam$
7
7
1
Forced Plasma Bank
0
0
15
5
10
1
180
110
$END_OF_SHIPDATA$
48
HanQuhr
2
11
3
1
10
10
10
10
10
10
0
0
0
0
0
0
15

1000
4
1
0
0
4000
10
1
3
1
82
2
2
40
0
0
113
3
1
-1
$Torpedo$
15
1
30
4
Hanuhr Advanced Tube
0
55
0
150
$Torpedo$
15
1
30
2
Hanuhr Advanced Tube
0
55
180
150
$Beam$
12
7
9
Forced Plasma Bank
0
0
15
5
10
1
0
110
$Beam$
16
85
3
Heavy Plasma Cannon
0
0
10
1
24
1
0
75
$Beam$
12
7
3
Forced Plasma Bank
0
0
15
5
10
1
180
110
$END_OF_SHIPDATA$
49
Heyoun Control Station
2
13
3
0
7
7
7
7
7
7
25
0
0
0
0
0
1

11000
2
1
0
0
29000
6
1
0
0
110
2
0
0
0
0
40
3
0
-1
$Torpedo$
15
1
30
12
Hanuhr Advanced Tube
0
55
0
150
$Torpedo$
15
1
30
6
Hanuhr Advanced Tube
0
55
180
150
$Beam$
12
7
33
Forced Plasma Bank
0
0
15
5
10
1
0
110
$Beam$
12
7
11
Forced Plasma Bank
0
0
15
5
10
1
180
110
$END_OF_SHIPDATA$
50
Heyoun Outpost
2
12
3
0
6
6
6
6
6
6
15
0
0
0
0
0
1

9000
2
1
1
0
18000
6
1
0
0
70
2
0
0
0
0
19
0
0
-1
$Torpedo$
15
1
60
10
Hanuhr Improved Tube
0
50
0
120
$Torpedo$
15
1
60
2
Hanuhr Improved Tube
0
50
180
120
$Beam$
10
7
15
Forced Plasma Bank
0
0
15
5
10
1
0
110
$Beam$
10
7
3
Forced Plasma Bank
0
0
15
5
10
1
180
110
$END_OF_SHIPDATA$
51
Heyoun Trade Station
2
13
3
0
2
2
2
2
2
2
10
0
0
0
0
0
1

9000
0
1
0
0
19000
2
0
0
0
70
2
0
0
0
0
17
3
0
-1
$Torpedo$
14
1
80
4
Hanuhr Basic Tube
0
45
0
90
$Torpedo$
14
1
80
2
Hanuhr Basic Tube
0
45
180
90
$Beam$
10
7
10
Forced Plasma Emitter
0
0
10
3
5
1
0
70
$Beam$
10
7
5
Forced Plasma Emitter
0
0
10
3
5
1
180
70
$END_OF_SHIPDATA$
52
Mgart
2
6
1
5
2
2
2
2
2
3
0
0
0
0
0
0
2

160
0
0
0
0
1000
1
0
2
1
60
0
0
5
0
0
14
7
8
-1
$Torpedo$
14
1
80
1
Hanuhr Basic Tube
0
45
0
90
$Torpedo$
14
1
80
2
Hanuhr Basic Tube
0
45
180
90
$Beam$
7
12
2
Plasma Cannon
0
0
5
1
11
2
0
80
$Beam$
7
7
2
Forced Plasma Emitter
0
0
10
3
5
1
180
70
$END_OF_SHIPDATA$
53
Mining Base
2
12
3
0
0
0
0
0
0
0
10
0
0
0
0
0
1

2500
0
1
0
0
1500
1
0
0
0
59
2
0
0
0
0
3
0
0
-1
$Torpedo$
14
1
80
3
Hanuhr Basic Tube
0
45
0
90
$Torpedo$
14
1
80
1
Hanuhr Basic Tube
0
45
180
90
$Beam$
8
7
4
Forced Plasma Emitter
0
0
10
3
5
1
0
70
$Beam$
8
7
2
Forced Plasma Emitter
0
0
10
3
5
1
180
70
$END_OF_SHIPDATA$
54
Tirax
2
1
0
1
0
0
0
0
0
0
250
0
0
0
0
0
1

100
0
0
0
0
300
0
0
1
1
0
0
0
0
1
0
2
0
0
-1
$END_OF_SHIPDATA$
55
Tirax II
2
1
1
2
5
4
4
4
4
4
1000
300
0
0
0
0
2

200
0
0
0
0
600
2
0
2
1
0
0
0
0
2
0
5
0
0
54
$END_OF_SHIPDATA$
56
Tirax III
2
1
2
3
8
7
7
7
7
7
2000
1000
0
0
0
0
5

400
0
0
0
0
1200
4
0
3
1
0
0
0
0
3
0
12
0
0
55
$END_OF_SHIPDATA$
57
Tok
2
8
1
4
2
2
2
2
2
3
0
0
0
0
0
0
3

140
0
0
0
0
800
2
0
2
1
40
1
0
0
0
0
12
7
0
-1
$Torpedo$
14
1
80
3
Hanuhr Basic Tube
0
45
0
90
$Beam$
4
7
3
Forced Plasma Emitter
0
0
10
3
5
1
0
70
$END_OF_SHIPDATA$
58
Union base
2
13
3
0
9
10
9
11
11
11
40
0
0
0
0
0
1

21000
4
1
1
0
45000
10
1
0
0
130
3
0
0
0
0
64
3
0
-1
$Torpedo$
15
1
30
18
Hanuhr Advanced Tube
0
55
0
150
$Torpedo$
15
1
30
6
Hanuhr Advanced Tube
0
55
180
150
$Beam$
14
7
30
Forced Plasma Bank
0
0
15
5
10
1
0
110
$Beam$
14
7
15
Forced Plasma Bank
0
0
15
5
10
1
180
110
$END_OF_SHIPDATA$
59
Vantor
2
5
0
5
1
1
1
1
1
1
0
0
0
0
0
0
2

175
0
0
0
0
750
0
0
2
1
40
1
0
0
0
0
12
6
0
-1
$Torpedo$
14
1
80
2
Hanuhr Basic Tube
0
45
0
90
$Beam$
5
12
3
Plasma Cannon
0
0
5
1
11
2
0
80
$Beam$
5
12
1
Plasma Cannon
0
0
5
1
11
2
180
80
$END_OF_SHIPDATA$
60
Vooran
2
5
1
5
3
3
3
3
4
4
0
0
0
0
0
0
4

400
0
0
0
0
1300
2
0
2
0
50
1
0
20
0
0
18
1
0
59
$Torpedo$
14
1
80
2
Hanuhr Basic Tube
0
45
0
90
$Torpedo$
14
1
80
1
Hanuhr Basic Tube
0
45
180
90
$Beam$
8
7
4
Forced Plasma Emitter
0
0
10
3
5
1
0
70
$Beam$
8
7
2
Forced Plasma Emitter
0
0
10
3
5
1
180
70
$END_OF_SHIPDATA$
61
Wokatorn
2
8
2
4
6
6
6
6
6
6
0
0
0
0
0
0
10

700
2
0
0
0
2500
5
1
2
1
40
1
1
30
0
0
37
8
2
-1
$Torpedo$
14
1
60
3
Hanuhr Improved Tube
0
50
0
120
$Torpedo$
14
1
60
1
Hanuhr Improved Tube
0
50
180
120
$Beam$
10
7
7
Forced Plasma Bank
0
0
15
5
10
1
0
110
$Beam$
10
7
3
Forced Plasma Bank
0
0
15
5
10
1
180
110
$END_OF_SHIPDATA$
62
Wokatorn II
2
8
2
5
10
10
10
11
10
11
500
200
0
0
0
0
12

900
2
0
0
0
3000
6
1
3
1
60
1
1
30
0
0
43
8
2
61
$Torpedo$
14
1
60
3
Hanuhr Improved Tube
0
50
0
120
$Torpedo$
14
1
60
1
Hanuhr Improved Tube
0
50
180
120
$Beam$
10
7
7
Forced Plasma Bank
0
0
15
5
10
1
0
110
$Beam$
10
7
3
Forced Plasma Bank
0
0
15
5
10
1
180
110
$END_OF_SHIPDATA$
63
Yirin
2
5
2
5
5
5
5
5
5
5
0
0
0
0
0
0
5

360
0
0
0
0
2200
4
0
3
1
60
1
2
20
0
0
32
3
0
-1
$Torpedo$
14
1
60
1
Hanuhr Improved Tube
0
50
0
120
$Torpedo$
14
1
60
1
Hanuhr Improved Tube
0
50
180
120
$Beam$
9
7
5
Forced Plasma Bank
0
0
15
5
10
1
0
110
$Beam$
9
7
5
Forced Plasma Bank
0
0
15
5
10
1
180
110
$END_OF_SHIPDATA$
64
Yirin II
2
5
2
6
8
8
8
8
8
8
0
0
0
0
0
0
10

420
2
1
0
0
2100
7
1
3
1
60
2
3
20
0
0
55
6
0
63
$Torpedo$
15
1
30
2
Hanuhr Advanced Tube
0
55
0
150
$Torpedo$
15
1
30
1
Hanuhr Advanced Tube
0
55
180
150
$Beam$
12
13
4
Pulse Plasma Cannon
0
0
10
1
14
3
0
90
$Beam$
12
13
4
Pulse Plasma Cannon
0
0
10
1
14
3
180
90
$END_OF_SHIPDATA$
65
Annihilation
3
9
2
3
6
6
6
7
7
7
500
0
0
0
0
0
20

2000
2
0
0
0
6200
4
1
3
1
60
2
2
30
0
0
206
1
3
71
$Torpedo$
11
1
50
3
EMP High Power
0
45
0
90
$Beam$
12
13
2
Pulse Disruptor Cannon
0
0
10
1
14
3
0
60
$Beam$
10
12
12
Disruptor Cannon
0
0
5
1
11
2
0
45
$Beam$
12
85
1
Heavy Disruptor Cannon
0
0
10
1
24
1
0
40
$END_OF_SHIPDATA$
66
Apocalypse
3
13
3
0
10
10
10
10
10
10
60
0
0
0
0
0
1

26000
4
1
1
0
25000
10
1
0
0
150
3
0
0
0
0
122
3
0
-1
$Torpedo$
11
1
50
14
EMP High Power
0
45
0
90
$Torpedo$
11
1
50
4
EMP High Power
0
45
180
90
$Beam$
16
12
48
Disruptor Cannon
0
0
5
1
11
2
0
45
$Beam$
16
12
16
Disruptor Cannon
0
0
5
1
11
2
180
45
$END_OF_SHIPDATA$
67
Armageddon
3
13
3
0
4
4
4
4
4
4
30
0
0
0
0
0
1

7000
2
1
0
0
14000
4
1
0
0
85
2
0
0
0
0
46
3
0
-1
$Torpedo$
10
1
80
8
EMP Basic
0
50
0
70
$Torpedo$
10
1
80
2
EMP Basic
0
50
180
70
$Beam$
12
12
33
Disruptor Cannon
0
0
5
1
11
2
0
45
$Beam$
12
12
11
Disruptor Cannon
0
0
5
1
11
2
180
45
$END_OF_SHIPDATA$
68
Battle Axe
3
3
0
6
0
0
0
0
0
0
10
0
0
0
0
0
1

200
0
0
0
0
300
0
0
1
2
60
1
2
0
0
0
14
5
0
-1
$Torpedo$
10
1
100
1
EMP Original Tube
0
50
0
60
$Beam$
5
12
3
Disruptor Cannon
0
0
5
1
11
2
0
45
$END_OF_SHIPDATA$
69
Behemoth
3
11
3
1
10
10
10
10
10
10
3000
0
0
0
0
0
35

3000
4
1
0
0
9500
9
1
3
0
66
2
2
0
0
0
496
3
1
-1
$Torpedo$
11
3
100
7
EMP Triplefire
0
40
0
100
$Beam$
18
85
8
Heavy Disruptor Cannon
0
0
10
1
24
1
0
40
$Beam$
12
7
8
Disruptor Bank
0
0
15
5
10
1
0
60
$Beam$
12
12
18
Disruptor Cannon
0
0
5
1
11
2
0
45
$END_OF_SHIPDATA$
70
Dagger
3
4
1
7
4
4
4
5
4
5
35
0
0
0
0
0
1

220
0
1
0
0
1700
4
1
3
1
60
0
4
0
0
0
46
5
8
68
$Torpedo$
10
1
50
1
EMP High Power
0
45
0
90
$Beam$
8
13
2
Pulse Disruptor Cannon
0
0
10
1
14
3
0
60
$END_OF_SHIPDATA$
71
Damnation
3
9
1
3
2
2
2
3
2
3
0
0
0
0
0
0
8

900
0
0
0
1
2600
2
0
2
1
60
1
1
10
0
0
81
2
6
-1
$Torpedo$
10
1
80
2
EMP Basic
0
50
0
70
$Beam$
8
12
8
Disruptor Cannon
0
0
5
1
11
2
0
45
$Beam$
8
12
2
Disruptor Cannon
0
0
5
1
11
2
20
45
$Beam$
8
12
2
Disruptor Cannon
0
0
5
1
11
2
340
45
$END_OF_SHIPDATA$
72
Demon
3
6
0
5
1
1
1
2
2
2
50
0
0
0
0
0
3

370
0
0
0
0
1100
1
0
2
1
60
1
2
0
0
0
31
8
0
-1
$Torpedo$
10
1
100
1
EMP Original Tube
0
50
0
60
$Beam$
7
13
4
Pulse Disruptor Cannon
0
0
10
1
14
3
0
60
$END_OF_SHIPDATA$
73
Demon II
3
6
2
7
11
11
11
12
12
12
150
0
0
0
0
0
8

740
0
0
0
0
3300
7
0
4
2
80
2
4
0
0
0
93
8
0
72
$Torpedo$
10
1
100
1
EMP Original Tube
0
50
0
60
$Beam$
7
13
4
Pulse Disruptor Cannon
0
0
10
1
14
3
0
60
$END_OF_SHIPDATA$
74
Destiny
3
1
0
1
0
0
0
0
0
0
4
0
0
0
0
0
1

200
0
0
0
0
800
1
0
1
1
0
0
0
0
1
0
15
0
0
-1
$Beam$
6
12
1
Disruptor Cannon
0
0
5
1
11
2
0
45
$END_OF_SHIPDATA$
75
Diablo
3
8
1
4
5
5
5
5
5
5
0
0
0
0
0
0
8

700
0
1
0
0
2900
5
1
3
1
64
2
2
10
0
0
81
6
2
72
$Torpedo$
25
2
10
1
EMP Microtube
1
45
0
150
$Torpedo$
10
1
50
1
EMP High Power
0
45
0
90
$Torpedo$
25
2
10
1
EMP Microtube
1
45
180
150
$Beam$
9
13
4
Pulse Disruptor Cannon
0
0
10
1
14
3
0
60
$END_OF_SHIPDATA$
76
Doomsday
3
13
3
0
8
8
8
8
8
8
40
0
0
0
0
0
1

18000
4
1
1
0
17000
8
1
0
0
130
3
0
0
0
0
104
3
0
-1
$Torpedo$
11
3
100
4
EMP Triplefire
0
40
0
100
$Torpedo$
11
3
100
2
EMP Triplefire
0
40
180
100
$Beam$
14
12
35
Disruptor Cannon
0
0
5
1
11
2
0
45
$Beam$
14
12
14
Disruptor Cannon
0
0
5
1
11
2
180
45
$END_OF_SHIPDATA$
77
Downfall
3
7
2
4
4
4
4
4
4
4
0
0
0
0
0
0
10

750
0
1
0
0
3500
3
0
2
1
60
2
1
20
0
0
100
1
0
82
$Torpedo$
10
1
80
2
EMP Basic
0
50
0
70
$Beam$
10
7
1
Disruptor Bank
0
0
15
5
10
1
0
60
$Beam$
8
12
8
Disruptor Cannon
0
0
5
1
11
2
0
45
$END_OF_SHIPDATA$
78
Dungeon
3
7
3
3
7
7
7
7
7
7
0
0
0
0
0
0
15

900
2
1
0
0
5000
7
1
3
1
60
1
3
0
0
0
176
2
7
77
$Torpedo$
10
3
100
3
EMP Triplefire
0
40
0
100
$Beam$
12
12
4
Disruptor Cannon
0
0
5
1
11
2
0
45
$Beam$
10
7
2
Disruptor Bank
0
0
15
5
10
1
20
60
$Beam$
12
13
2
Pulse Disruptor Cannon
0
0
10
1
14
3
0
60
$Beam$
10
7
2
Disruptor Bank
0
0
15
5
10
1
340
60
$END_OF_SHIPDATA$
79
Fear
3
0
0
2
0
0
0
0
0
0
500
500
0
0
0
0
1

300
0
0
0
0
400
1
0
1
1
0
0
0
5000
0
1
11
0
0
-1
$Beam$
6
12
1
Disruptor Cannon
0
0
5
1
11
2
0
45
$END_OF_SHIPDATA$
80
Leviathan
3
10
3
2
8
9
8
8
9
9
0
0
0
0
0
0
25

2900
2
1
1
0
7800
8
1
3
1
80
2
2
40
0
0
397
3
1
-1
$Torpedo$
11
3
100
4
EMP Triplefire
0
40
0
100
$Torpedo$
11
1
50
2
EMP High Power
0
45
0
90
$Beam$
18
85
2
Heavy Disruptor Cannon
0
0
10
1
24
1
0
40
$Beam$
12
13
11
Pulse Disruptor Cannon
0
0
10
1
14
3
20
60
$Beam$
12
14
1
Disruptor Cannon Turret
0
0
15
1
17
4
180
360
$Beam$
12
13
11
Pulse Disruptor Cannon
0
0
10
1
14
3
340
60
$END_OF_SHIPDATA$
81
Nightmare
3
4
1
7
7
8
7
8
7
7
1000
0
0
0
0
0
6

250
0
1
0
0
1600
8
1
3
2
60
1
4
0
0
0
39
8
0
70
$Torpedo$
25
2
10
4
EMP Microtube
1
45
0
150
$Torpedo$
25
2
10
2
EMP Microtube
1
45
180
150
$Beam$
10
13
2
Pulse Disruptor Cannon
0
0
10
1
14
3
0
60
$END_OF_SHIPDATA$
82
Perdition
3
7
1
3
1
1
1
1
1
2
100
0
0
0
0
0
6

500
0
0
0
0
1100
0
0
2
1
60
2
1
20
0
0
36
1
7
-1
$Torpedo$
10
1
80
1
EMP Basic
0
50
0
70
$Beam$
6
12
4
Disruptor Cannon
0
0
5
1
11
2
0
45
$Beam$
6
12
1
Disruptor Cannon
0
0
5
1
11
2
20
45
$Beam$
6
12
1
Disruptor Cannon
0
0
5
1
11
2
340
45
$END_OF_SHIPDATA$
83
Punishment
3
0
1
2
5
5
5
5
5
5
1500
1000
0
0
0
0
5

1250
0
0
0
0
2000
3
0
2
2
0
0
0
10000
0
2
52
0
0
79
$Beam$
8
12
2
Disruptor Cannon
0
0
5
1
11
2
0
45
$Beam$
8
12
1
Disruptor Cannon
0
0
5
1
11
2
180
45
$END_OF_SHIPDATA$
84
Punishment II
3
0
2
3
9
9
9
10
9
9
2000
1500
0
0
0
0
8

1500
0
0
0
0
3000
5
0
3
2
0
0
0
12500
0
2
81
0
0
83
$Beam$
8
12
2
Disruptor Cannon
0
0
5
1
11
2
0
45
$Beam$
8
12
1
Disruptor Cannon
0
0
5
1
11
2
180
45
$END_OF_SHIPDATA$
85
Punishment III
3
0
2
3
13
13
13
14
13
13
3500
2000
0
0
0
0
10

1800
0
0
0
0
5000
8
0
4
2
0
0
0
17500
0
3
122
0
0
84
$Beam$
8
12
2
Disruptor Cannon
0
0
5
1
11
2
0
45
$Beam$
8
12
1
Disruptor Cannon
0
0
5
1
11
2
180
45
$END_OF_SHIPDATA$
86
Revenge
3
12
3
0
0
0
0
0
0
0
10
0
0
0
0
0
1

3000
0
1
0
0
5000
1
0
0
0
59
2
0
0
0
0
18
0
0
-1
$Beam$
12
12
25
Disruptor Cannon
0
0
5
1
11
2
0
45
$Beam$
12
12
6
Disruptor Cannon
0
0
5
1
11
2
180
45
$END_OF_SHIPDATA$
87
Rise of Death
3
1
1
2
4
3
3
3
3
3
500
500
0
0
0
0
5

1000
0
0
0
0
2000
3
0
2
1
0
0
0
0
2
0
51
0
0
74
$Beam$
10
12
3
Disruptor Cannon
0
0
5
1
11
2
0
45
$Beam$
10
12
1
Disruptor Cannon
0
0
5
1
11
2
180
45
$END_OF_SHIPDATA$
88
Warlord
3
5
2
5
8
8
8
8
8
9
0
0
0
0
0
0
10

300
2
1
0
0
2200
7
1
3
0
70
1
3
0
0
0
82
7
0
-1
$Torpedo$
11
1
80
2
EMP Basic
0
50
0
70
$Beam$
10
12
5
Disruptor Cannon
0
0
5
1
11
2
0
45
$END_OF_SHIPDATA$
89
Wrath
3
12
3
0
6
6
6
6
6
6
20
0
0
0
0
0
1

10000
2
1
0
0
13000
6
1
0
0
110
2
0
0
0
0
38
6
0
-1
$Torpedo$
10
1
80
8
EMP Basic
0
50
0
70
$Torpedo$
10
1
80
4
EMP Basic
0
50
180
70
$Beam$
12
12
18
Disruptor Cannon
0
0
5
1
11
2
0
45
$Beam$
12
12
8
Disruptor Cannon
0
0
5
1
11
2
180
45
$END_OF_SHIPDATA$
90
C'labrum
4
1
1
2
5
4
4
4
4
4
1000
500
0
0
0
0
5

500
0
0
0
0
1500
3
0
2
1
0
0
4
0
2
0
23
0
0
91
$END_OF_SHIPDATA$
91
C'lypeus
4
1
0
1
0
0
0
0
0
0
300
0
0
0
0
0
1

200
0
0
0
0
900
1
0
1
1
0
0
0
0
1
0
11
0
0
-1
$END_OF_SHIPDATA$
92
C'nutrix
4
1
2
1
5
4
6
4
6
4
1000
500
0
0
0
0
5

300
0
0
0
0
1000
2
0
2
0
0
0
0
0
3
0
16
0
0
-1
$END_OF_SHIPDATA$
93
D'Corax
4
11
3
1
10
10
10
10
10
10
0
0
0
0
0
0
25

2000
4
1
0
0
8000
9
1
3
1
82
2
6
40
0
0
398
3
1
-1
$Torpedo$
8
1
16
4
S3 Torpedotube
0
40
0
90
$Beam$
12
7
10
Disruptor Bank
0
0
15
5
10
1
0
60
$Beam$
16
85
4
Heavy Disruptor Cannon
0
0
10
1
24
1
0
90
$Beam$
12
7
5
Disruptor Bank
0
0
15
5
10
1
25
60
$Beam$
12
7
5
Disruptor Bank
0
0
15
5
10
1
335
60
$END_OF_SHIPDATA$
94
D'Ocellus
4
10
3
1
6
7
6
6
7
7
0
0
0
0
0
0
20

1200
2
1
0
0
6000
6
1
2
1
70
2
5
40
0
0
187
3
1
-1
$Torpedo$
7
1
16
2
S3 Torpedotube
0
40
0
90
$Beam$
12
7
3
Disruptor Bank
0
0
15
5
10
1
15
60
$Beam$
12
7
3
Disruptor Bank
0
0
15
5
10
1
345
60
$Beam$
18
8
1
Disruptor Beam Turret
0
0
20
2
3
1
0
360
$END_OF_SHIPDATA$
95
M'adomen
4
4
1
7
7
7
7
8
7
8
0
0
0
0
0
0
6

280
2
0
0
0
1600
6
1
3
1
40
0
5
0
0
0
68
5
0
97
$Torpedo$
7
1
16
1
S3 Torpedotube
0
40
180
90
$Beam$
8
13
4
Pulse Disruptor Cannon
0
0
10
1
14
3
0
60
$END_OF_SHIPDATA$
96
M'esothirax
4
4
0
5
1
1
1
1
1
1
0
0
0
0
0
0
2

350
0
0
0
0
1500
0
0
2
1
40
1
4
0
0
0
24
6
0
-1
$Torpedo$
1
1
100
2
S1 Torpedotube
0
50
180
70
$Beam$
5
12
4
Disruptor Cannon
0
0
5
1
11
2
0
45
$END_OF_SHIPDATA$
97
M'etathaurax
4
4
0
7
4
5
5
5
4
4
0
0
0
0
0
0
6

120
0
0
0
1
1400
4
0
2
1
50
1
5
0
0
0
32
5
0
96
$Torpedo$
6
1
50
1
S2 Torpedotube
0
50
180
80
$Beam$
7
7
4
Disruptor Bank
0
0
15
5
10
1
0
60
$END_OF_SHIPDATA$
98
P'ratarsus
4
3
0
6
0
0
0
0
0
0
0
0
0
0
0
0
1

120
0
0
0
0
400
0
0
1
2
50
1
4
0
0
0
8
9
0
-1
$Torpedo$
1
1
100
2
S1 Torpedotube
0
50
0
70
$Beam$
4
6
2
Disruptor Emitter
0
0
10
3
7
1
0
45
$END_OF_SHIPDATA$
99
P'rotharax
4
3
1
6
5
5
6
6
5
5
0
0
0
0
0
0
4

180
0
0
0
0
1000
4
0
2
2
70
2
5
0
0
0
30
9
0
98
$Torpedo$
6
1
50
1
S2 Torpedotube
0
50
0
80
$Beam$
8
7
3
Disruptor Bank
0
0
15
5
10
1
0
60
$END_OF_SHIPDATA$
100
P'socodea
4
3
1
6
8
8
8
9
9
8
0
0
0
0
0
0
8

200
0
0
0
0
1800
7
1
4
2
60
3
6
0
0
0
69
9
0
99
$Torpedo$
7
1
16
1
S3 Torpedotube
0
40
0
90
$Beam$
10
13
3
Pulse Disruptor Cannon
0
0
10
1
14
3
0
60
$END_OF_SHIPDATA$
101
R'Acron
4
7
2
2
3
3
3
3
4
4
0
0
0
0
0
0
8

800
0
0
0
0
2600
2
0
2
0
50
1
4
20
0
0
56
1
0
-1
$Torpedo$
6
1
100
1
S1 Torpedotube
0
50
0
70
$Torpedo$
6
1
100
1
S1 Torpedotube
0
50
30
70
$Torpedo$
6
1
100
1
S1 Torpedotube
0
50
330
70
$Beam$
8
6
3
Disruptor Emitter
0
0
10
3
7
1
15
45
$Beam$
8
6
3
Disruptor Emitter
0
0
10
3
7
1
345
45
$END_OF_SHIPDATA$
102
R'Tibia
4
9
2
2
6
6
6
6
6
6
0
0
0
0
0
0
15

1400
0
0
0
0
5000
5
1
2
1
40
1
5
30
0
0
128
1
0
101
$Torpedo$
7
1
50
1
S2 Torpedotube
0
50
0
80
$Torpedo$
7
1
50
1
S2 Torpedotube
0
50
30
80
$Torpedo$
7
1
50
1
S2 Torpedotube
0
50
330
80
$Beam$
10
7
6
Disruptor Bank
0
0
15
5
10
1
20
60
$Beam$
10
7
6
Disruptor Bank
0
0
15
5
10
1
340
60
$END_OF_SHIPDATA$
103
Rotharian Outpost I
4
12
3
0
0
0
0
0
0
0
8
0
0
0
0
0
1

3000
0
1
0
0
2800
1
0
0
0
59
2
0
0
0
0
8
0
0
-1
$Torpedo$
1
1
100
8
S1 Torpedotube
0
50
0
70
$Torpedo$
1
1
100
3
S1 Torpedotube
0
50
180
70
$Beam$
8
6
8
Disruptor Emitter
0
0
10
3
7
1
0
45
$Beam$
8
6
2
Disruptor Emitter
0
0
10
3
7
1
180
45
$END_OF_SHIPDATA$
104
Rotharian Outpost II
4
12
3
0
6
6
6
6
6
6
15
0
0
0
0
0
1

9000
2
1
1
0
18000
6
1
0
0
70
2
0
0
0
0
35
6
0
-1
$Torpedo$
6
1
50
7
S2 Torpedotube
0
50
0
80
$Torpedo$
6
1
50
3
S2 Torpedotube
0
50
180
80
$Beam$
10
7
16
Disruptor Bank
0
0
15
5
10
1
0
60
$Beam$
10
7
4
Disruptor Bank
0
0
15
5
10
1
180
60
$END_OF_SHIPDATA$
105
S'altatoria
4
0
1
2
5
5
5
5
5
5
1000
1000
0
0
0
0
1

800
0
0
0
0
2500
4
1
2
1
0
0
4
10000
0
2
37
0
0
106
$END_OF_SHIPDATA$
106
S'capus
4
0
0
1
0
0
0
0
0
0
600
400
0
0
0
0
1

300
0
0
0
0
600
0
0
1
1
0
0
0
5000
0
1
7
0
0
-1
$END_OF_SHIPDATA$
107
S'vistraea
4
0
2
1
5
5
5
5
6
5
1000
1000
0
0
0
0
1

600
0
1
0
0
1500
2
0
2
0
0
0
0
15000
0
3
27
0
0
-1
$END_OF_SHIPDATA$
108
S'vistraea II
4
0
2
2
9
9
9
10
9
9
1900
1400
0
0
0
0
6

900
0
1
0
0
2000
4
0
3
1
0
0
5
17500
0
3
39
0
0
107
$END_OF_SHIPDATA$
109
S'vistraea III
4
0
2
3
13
13
13
14
13
13
4200
1800
0
0
0
0
9

1200
0
1
0
0
2500
6
0
4
1
0
0
6
20000
0
3
53
0
0
108
$END_OF_SHIPDATA$
110
Sector Station I
4
13
3
0
2
2
2
2
2
2
10
0
0
0
0
0
1

9000
0
1
0
0
21000
3
0
0
0
70
2
1
0
0
0
34
3
0
-1
$Torpedo$
6
1
100
3
S1 Torpedotube
0
50
0
70
$Torpedo$
6
1
100
1
S1 Torpedotube
0
50
180
70
$Beam$
10
6
14
Disruptor Emitter
0
0
10
3
7
1
0
45
$Beam$
10
6
6
Disruptor Emitter
0
0
10
3
7
1
180
45
$END_OF_SHIPDATA$
111
Sector Station II
4
13
3
0
7
7
7
7
7
7
25
0
0
0
0
0
1

11000
2
1
0
0
32000
8
1
0
0
110
2
2
0
0
0
75
3
0
-1
$Torpedo$
7
1
50
12
S2 Torpedotube
0
50
0
80
$Torpedo$
7
1
50
4
S2 Torpedotube
0
50
180
80
$Beam$
12
7
36
Disruptor Bank
0
0
15
5
10
1
0
60
$Beam$
12
7
12
Disruptor Bank
0
0
15
5
10
1
180
60
$END_OF_SHIPDATA$
112
Starbase
4
13
3
0
9
9
9
9
9
9
40
0
0
0
0
0
1

21000
4
1
1
0
45000
10
1
0
0
130
3
0
0
0
0
161
3
0
-1
$Torpedo$
8
1
16
13
S3 Torpedotube
0
40
0
90
$Torpedo$
8
1
16
5
S3 Torpedotube
0
40
180
90
$Beam$
14
7
45
Disruptor Bank
0
0
15
5
10
1
0
60
$Beam$
14
7
15
Disruptor Bank
0
0
15
5
10
1
180
60
$END_OF_SHIPDATA$
113
V'Tarsomer
4
7
2
3
8
8
8
8
8
8
0
0
0
0
0
0
15

840
2
1
0
0
4200
7
1
3
1
60
2
6
20
0
0
155
6
0
115
$Torpedo$
7
1
16
1
S3 Torpedotube
0
40
35
90
$Torpedo$
7
1
16
1
S3 Torpedotube
0
40
325
90
$Beam$
12
13
4
Pulse Disruptor Cannon
0
0
10
1
14
3
20
60
$Beam$
12
13
4
Pulse Disruptor Cannon
0
0
10
1
14
3
340
60
$END_OF_SHIPDATA$
114
V'emur
4
6
1
5
2
2
2
2
2
3
0
0
0
0
0
0
4

320
0
0
0
0
2000
1
0
2
1
60
0
4
5
0
0
39
7
8
-1
$Torpedo$
6
1
100
1
S1 Torpedotube
0
50
25
70
$Torpedo$
6
1
100
1
S1 Torpedotube
0
50
335
70
$Beam$
7
12
3
Disruptor Cannon
0
0
5
1
11
2
0
45
$Beam$
7
6
3
Disruptor Emitter
0
0
10
3
7
1
0
45
$END_OF_SHIPDATA$
115
V'epipharyn
4
7
2
2
5
5
5
5
5
5
0
0
0
0
0
0
15

720
0
0
0
0
4400
4
0
3
1
60
1
4
20
0
0
101
3
0
-1
$Torpedo$
7
1
50
2
S2 Torpedotube
0
50
0
80
$Beam$
9
7
10
Disruptor Bank
0
0
15
5
10
1
0
60
$END_OF_SHIPDATA$
116
V'tarsus
4
8
1
4
9
9
9
9
9
9
0
0
0
0
0
0
15

460
2
1
0
0
3000
8
1
4
1
70
0
6
10
0
0
104
7
8
114
$Torpedo$
8
1
16
1
S3 Torpedotube
0
40
0
90
$Beam$
12
13
3
Pulse Disruptor Cannon
0
0
10
1
14
3
20
60
$Beam$
12
13
3
Pulse Disruptor Cannon
0
0
10
1
14
3
340
60
$END_OF_SHIPDATA$
117
Boris
5
6
2
5
6
6
6
7
6
6
1000
400
0
0
0
0
10

500
0
0
0
0
1500
5
1
3
1
70
1
1
120
0
0
61
6
0
136
$Torpedo$
13
1
40
2
CARIN Model 2
0
45
0
75
$Beam$
6
13
2
Pulse Disruptor Cannon
0
0
10
1
14
3
0
60
$Beam$
8
7
2
Disruptor Array
0
0
30
8
12
1
0
75
$END_OF_SHIPDATA$
118
Caranna
5
3
0
6
0
0
0
0
0
0
0
0
0
0
0
0
1

200
0
0
0
0
200
0
0
1
2
60
1
1
0
0
0
7
9
0
-1
$Torpedo$
2
1
60
1
CARIN Model 1
0
50
0
60
$Beam$
4
6
2
Disruptor Emitter
0
0
10
3
7
1
0
45
$END_OF_SHIPDATA$
119
Carjt
5
13
3
0
4
4
4
4
4
4
30
0
0
0
0
0
1

12000
2
1
0
0
10000
5
1
0
0
50
1
0
0
0
0
37
3
0
-1
$Torpedo$
5
1
60
8
CARIN Model 1
0
50
0
60
$Torpedo$
5
1
60
2
CARIN Model 1
0
50
180
60
$Beam$
12
12
33
Disruptor Cannon
0
0
5
1
11
2
0
45
$Beam$
12
12
11
Disruptor Cannon
0
0
5
1
11
2
180
45
$END_OF_SHIPDATA$
120
Carjw
5
13
3
0
8
8
8
8
8
8
40
0
0
0
0
0
1

25000
4
1
1
0
18000
9
1
0
0
70
2
0
0
0
0
86
3
0
-1
$Torpedo$
13
1
40
5
CARIN Model 2
0
45
0
75
$Torpedo$
13
1
40
1
CARIN Model 2
0
45
180
75
$Beam$
14
12
34
Disruptor Cannon
0
0
5
1
11
2
0
45
$Beam$
14
12
15
Disruptor Cannon
0
0
5
1
11
2
180
45
$END_OF_SHIPDATA$
121
Carjz
5
13
3
0
10
10
10
10
10
10
60
0
0
0
0
0
1

32000
4
1
1
0
24000
10
1
0
0
90
2
0
0
0
0
109
3
0
-1
$Torpedo$
13
1
40
14
CARIN Model 2
0
45
0
75
$Torpedo$
13
1
40
4
CARIN Model 2
0
45
180
75
$Beam$
16
12
48
Disruptor Cannon
0
0
5
1
11
2
0
45
$Beam$
16
12
16
Disruptor Cannon
0
0
5
1
11
2
180
45
$END_OF_SHIPDATA$
122
Caroman
5
0
0
1
0
0
0
0
0
0
750
500
0
0
0
0
1

500
0
0
0
0
500
0
0
1
1
0
0
0
5500
0
1
7
0
0
-1
$END_OF_SHIPDATA$
123
Caroman II
5
0
1
1
4
4
4
4
5
4
1000
750
0
0
0
0
5

1000
0
0
0
0
2000
2
0
2
2
20
0
0
7000
0
2
28
0
0
122
$END_OF_SHIPDATA$
124
Caroman III
5
0
2
1
8
8
8
9
8
8
1500
1000
0
0
0
0
10

5000
0
0
0
0
3000
6
0
3
2
40
1
0
17000
0
3
78
0
0
123
$END_OF_SHIPDATA$
125
Caroman IV
5
0
2
2
11
11
11
12
11
11
3000
1700
0
0
0
0
15

7000
0
0
0
0
6000
6
0
4
2
60
1
0
20000
0
3
126
0
0
124
$END_OF_SHIPDATA$
126
Carpawel
5
1
0
1
0
0
0
0
0
0
350
0
0
0
0
0
1

400
0
0
0
0
350
0
0
1
1
0
0
0
0
1
0
6
0
0
-1
$END_OF_SHIPDATA$
127
Carpawel II
5
1
2
2
7
7
7
7
7
7
1500
800
0
0
0
0
5

3000
0
0
0
0
2000
4
0
3
0
0
0
0
0
3
0
48
0
0
126
$END_OF_SHIPDATA$
128
Chariton
5
10
3
2
8
9
8
8
9
9
0
0
0
0
0
0
25

4900
2
1
1
0
7100
8
1
3
1
80
2
1
40
0
0
320
3
1
-1
$Torpedo$
13
1
40
6
CARIN Model 2
0
45
0
75
$Beam$
18
85
2
Heavy Disruptor Cannon
0
0
10
1
24
1
0
40
$Beam$
12
13
22
Pulse Disruptor Cannon
0
0
10
1
14
3
0
60
$Beam$
12
14
1
Disruptor Cannon Turret
0
0
15
1
17
4
0
360
$END_OF_SHIPDATA$
129
Echolot
5
9
2
1
6
6
6
7
7
7
0
0
0
0
0
0
20

3000
2
0
0
0
5200
4
1
3
1
60
2
1
30
0
0
156
1
3
130
$Torpedo$
13
1
40
3
CARIN Model 2
0
45
0
75
$Beam$
12
13
2
Pulse Disruptor Cannon
0
0
10
1
14
3
0
60
$Beam$
10
12
12
Disruptor Cannon
0
0
5
1
11
2
0
45
$Beam$
12
85
1
Heavy Disruptor Cannon
0
0
10
1
24
1
0
40
$END_OF_SHIPDATA$
130
Fjodor
5
9
1
1
2
2
2
3
2
3
0
0
0
0
0
0
8

1200
0
0
0
1
2200
2
0
2
1
60
1
0
10
0
0
56
2
6
-1
$Torpedo$
5
1
60
2
CARIN Model 1
0
50
0
60
$Beam$
8
12
12
Disruptor Cannon
0
0
5
1
11
2
0
45
$END_OF_SHIPDATA$
131
Grigori
5
7
2
3
6
5
5
5
6
5
4000
1000
0
0
0
0
12

1500
0
0
0
0
3500
5
0
2
1
70
1
1
700
0
0
98
3
0
139
$Torpedo$
13
1
40
2
CARIN Model 2
0
45
0
75
$Beam$
9
7
10
Disruptor Bank
0
0
15
5
10
1
0
60
$END_OF_SHIPDATA$
132
Grigori II
5
7
3
3
13
13
13
14
13
14
5000
1500
0
0
0
400
15

3500
2
1
1
1
4500
7
0
3
1
90
2
1
700
0
0
175
3
0
131
$Torpedo$
13
1
40
2
CARIN Model 2
0
45
0
75
$Beam$
9
7
10
Disruptor Bank
0
0
15
5
10
1
0
60
$END_OF_SHIPDATA$
133
Irjat
5
12
3
0
0
0
0
0
0
0
10
0
0
0
0
0
1

5000
0
1
0
0
4000
1
0
0
0
30
1
0
0
0
0
13
0
0
-1
$Beam$
12
12
19
Disruptor Cannon
0
0
5
1
11
2
0
45
$Beam$
12
12
10
Disruptor Cannon
0
0
5
1
11
2
180
45
$END_OF_SHIPDATA$
134
Isjat
5
12
3
0
6
6
6
6
6
6
20
0
0
0
0
0
1

11000
2
1
0
0
13000
7
1
0
0
50
2
0
0
0
0
39
6
0
-1
$Torpedo$
13
1
40
9
CARIN Model 2
0
45
0
75
$Torpedo$
13
1
40
3
CARIN Model 2
0
45
180
75
$Beam$
12
12
17
Disruptor Cannon
0
0
5
1
11
2
0
45
$Beam$
12
12
9
Disruptor Cannon
0
0
5
1
11
2
180
45
$END_OF_SHIPDATA$
135
Jakow
5
4
1
7
7
8
7
8
7
7
0
0
0
0
0
0
6

400
2
1
0
0
1200
8
1
3
2
60
1
3
0
0
0
50
5
8
141
$Torpedo$
13
1
60
2
CARIN Model 1
0
50
0
60
$Beam$
10
13
2
Pulse Disruptor Cannon
0
0
10
1
14
3
0
60
$END_OF_SHIPDATA$
136
Juri
5
6
0
4
1
1
1
2
2
2
0
0
0
0
0
0
3

570
0
0
0
0
900
1
0
2
1
60
1
1
0
0
0
25
8
0
-1
$Torpedo$
2
1
60
1
CARIN Model 1
0
50
0
60
$Beam$
7
13
6
Pulse Disruptor Cannon
0
0
10
1
14
3
0
60
$END_OF_SHIPDATA$
137
Konstantin
5
11
3
1
10
10
10
10
10
10
0
0
0
0
0
0
30

6500
4
1
0
0
7500
9
1
3
0
66
2
0
0
0
0
418
3
1
-1
$Torpedo$
13
1
40
7
CARIN Model 2
0
45
0
75
$Beam$
18
85
8
Heavy Disruptor Cannon
0
0
10
1
24
1
0
40
$Beam$
12
7
8
Disruptor Bank
0
0
15
5
10
1
0
60
$Beam$
12
12
18
Disruptor Cannon
0
0
5
1
11
2
0
45
$END_OF_SHIPDATA$
138
Leonid
5
8
2
3
5
5
5
5
5
6
7000
300
0
0
0
0
8

600
0
0
0
0
2100
4
0
2
1
60
1
1
200
0
0
64
2
0
-1
$Torpedo$
13
1
60
3
CARIN Model 1
0
50
0
60
$Beam$
8
7
4
Disruptor Bank
0
0
15
5
10
1
0
60
$END_OF_SHIPDATA$
139
Semjon
5
7
1
3
4
3
3
4
4
3
2000
200
0
0
0
0
8

1000
0
0
0
0
2600
3
0
2
1
60
1
1
100
0
0
59
2
0
-1
$Torpedo$
5
1
60
3
CARIN Model 1
0
50
0
60
$Beam$
8
7
8
Disruptor Bank
0
0
15
5
10
1
0
60
$END_OF_SHIPDATA$
140
Semjon II
5
7
3
5
12
11
11
12
12
11
3000
400
0
0
0
200
10

1500
2
0
0
0
3600
6
0
4
1
80
1
1
100
0
0
72
2
0
-1
$Torpedo$
5
1
60
3
CARIN Model 1
0
50
0
60
$Beam$
8
7
8
Disruptor Bank
0
0
15
5
10
1
0
60
$END_OF_SHIPDATA$
141
Wassili
5
4
1
7
4
4
4
5
4
5
0
0
0
0
0
0
1

350
0
1
0
0
1200
4
1
3
1
60
0
3
0
0
0
33
5
8
-1
$Torpedo$
5
1
60
2
CARIN Model 1
0
50
0
60
$Beam$
8
13
2
Pulse Disruptor Cannon
0
0
10
1
14
3
0
60
$END_OF_SHIPDATA$
142
Yelaja
5
3
1
6
5
5
6
6
5
5
0
0
0
0
0
0
4

260
0
0
0
0
800
4
0
2
2
70
2
3
0
0
0
26
9
0
118
$Torpedo$
5
1
60
2
CARIN Model 1
0
50
0
60
$Beam$
8
6
3
Disruptor Emitter
0
0
10
3
7
1
0
45
$END_OF_SHIPDATA$
143
Aleph
6
5
1
5
4
5
5
4
4
4
2000
300
0
0
0
0
6

200
0
0
0
0
1700
4
1
3
1
60
1
2
200
0
0
55
7
0
-1
$Torpedo$
17
1
40
2
Omega Mark 1
0
45
0
50
$Beam$
6
6
6
Phased Polaron Bank
0
1
15
5
10
1
0
40
$END_OF_SHIPDATA$
144
Aleph II
6
5
1
7
13
13
13
14
13
13
2500
600
0
0
0
0
8

600
0
0
0
0
2800
6
1
4
1
80
2
2
300
0
0
80
7
0
143
$Torpedo$
17
1
40
2
Omega Mark 1
0
45
0
50
$Beam$
6
6
6
Phased Polaron Bank
0
1
15
5
10
1
0
40
$END_OF_SHIPDATA$
145
Beth
6
0
0
1
0
0
0
0
0
0
700
500
0
0
0
0
1

300
0
0
0
0
600
0
0
1
1
0
0
0
6000
0
1
9
0
0
-1
$END_OF_SHIPDATA$
146
Beth Extremum
6
0
1
3
12
12
12
13
12
12
4500
1900
0
0
0
0
12

1500
2
0
0
0
5000
6
0
4
2
60
1
0
15000
0
3
94
0
0
148
$END_OF_SHIPDATA$
147
Beth Magnum
6
0
1
1
5
5
5
5
5
5
1500
500
0
0
0
0
5

500
0
0
0
0
3000
2
0
2
1
20
0
0
7500
0
2
44
0
0
145
$END_OF_SHIPDATA$
148
Beth Supremum
6
0
1
2
8
8
8
9
8
8
2500
1200
0
0
0
0
10

1200
0
0
0
0
4000
4
0
3
1
40
0
0
10000
0
2
67
0
0
147
$END_OF_SHIPDATA$
149
Chet
6
1
0
1
0
0
0
0
0
0
400
0
0
0
0
0
1

200
0
0
0
0
500
0
0
1
1
0
0
0
0
1
0
6
0
0
-1
$END_OF_SHIPDATA$
150
Chet Magnum
6
1
1
1
4
4
4
4
4
4
1500
200
0
0
0
0
5

500
0
0
0
0
4000
1
0
2
1
0
0
0
0
2
0
54
0
0
149
$END_OF_SHIPDATA$
151
Da'unor Cruiser
6
9
3
3
7
7
7
7
7
7
5000
8000
200
200
0
0
20

1000
2
1
1
0
5000
7
1
2
1
70
1
2
500
0
0
283
2
0
-1
$Torpedo$
20
1
20
4
Omega Mark 2
0
40
0
65
$Beam$
10
7
12
Phased Polaron Array
0
1
30
8
12
1
0
50
$END_OF_SHIPDATA$
152
Da'unor Fighter
6
4
0
6
0
0
0
0
0
0
200
0
0
0
0
0
1

150
0
0
0
0
200
1
0
1
1
50
1
1
0
0
0
9
5
0
-1
$Beam$
5
5
2
Phased Polaron Emitter
0
1
10
3
7
1
0
15
$END_OF_SHIPDATA$
153
Da'unor Fighter Extremum
6
4
0
8
7
7
7
7
7
7
700
0
0
0
0
0
1

400
0
0
0
0
800
7
0
3
1
90
1
3
0
0
0
104
5
0
154
$Torpedo$
20
1
20
2
Omega Mark 2
0
40
0
65
$Beam$
6
13
2
Pulse Polaron Cannon
0
1
10
1
14
3
0
30
$END_OF_SHIPDATA$
154
Da'unor Fighter Magnum
6
4
0
7
4
5
5
5
4
4
0
0
0
0
0
0
6

200
0
0
0
0
400
4
0
2
1
70
1
2
0
0
0
27
5
0
152
$Torpedo$
17
1
40
1
Omega Mark 1
0
45
0
50
$Beam$
7
6
4
Phased Polaron Bank
0
1
15
5
10
1
0
40
$END_OF_SHIPDATA$
155
Da'unor Fighter Supremum
6
4
0
8
7
7
7
9
7
8
0
0
0
0
0
0
6

800
2
0
0
0
1600
9
0
4
1
110
1
3
0
0
0
93
5
0
153
$Torpedo$
20
1
20
1
Omega Mark 2
0
40
0
65
$Beam$
8
13
4
Pulse Polaron Cannon
0
1
10
1
14
3
0
30
$END_OF_SHIPDATA$
156
Da'unor Scout
6
3
0
6
5
5
6
6
5
5
0
0
0
0
0
0
4

180
0
0
0
0
1000
4
0
2
2
70
2
1
0
0
0
36
9
0
-1
$Torpedo$
17
1
40
2
Omega Mark 1
0
45
0
50
$Beam$
8
5
3
Phased Polaron Emitter
0
1
10
3
7
1
0
15
$END_OF_SHIPDATA$
157
Da'unor Scout Magnum
6
3
0
7
8
8
8
8
8
8
3000
300
0
0
0
0
6

200
0
0
0
0
2000
7
1
2
2
120
3
2
90
0
0
83
9
0
156
$Torpedo$
20
1
20
1
Omega Mark 2
0
40
0
65
$Beam$
8
6
4
Phased Polaron Bank
0
1
15
5
10
1
0
40
$END_OF_SHIPDATA$
158
Daleth
6
8
1
4
8
8
8
9
8
9
8000
400
0
0
0
0
15

400
2
1
1
0
3000
7
1
3
1
70
1
3
50
0
0
153
8
0
-1
$Torpedo$
20
1
20
2
Omega Mark 2
0
40
0
65
$Beam$
6
13
4
Pulse Polaron Cannon
0
1
10
1
14
3
0
30
$END_OF_SHIPDATA$
159
Home Defense
6
13
3
0
255
255
255
255
255
255
1
0
0
0
0
0
1

5000
4
1
1
1
32000
1
0
0
0
25
1
0
0
0
0
0
3
0
-1
$Torpedo$
26
1
40
30
Omega Mark 1
0
45
0
50
$Torpedo$
26
1
40
10
Omega Mark 1
0
45
180
50
$Beam$
6
5
44
Phased Polaron Emitter
0
1
10
3
7
1
0
15
$Beam$
6
5
20
Phased Polaron Emitter
0
1
10
3
7
1
180
15
$END_OF_SHIPDATA$
160
Kaph
6
3
0
6
0
0
0
0
0
0
0
0
0
0
0
0
1

150
0
0
0
0
200
1
0
1
2
50
1
1
0
0
0
7
9
0
-1
$Beam$
5
5
2
Phased Polaron Emitter
0
1
10
3
7
1
0
15
$END_OF_SHIPDATA$
161
Kaph Magnum
6
3
0
6
5
5
5
5
6
6
600
90
0
0
0
0
3

200
0
0
0
0
1800
5
0
2
2
100
1
0
20
0
0
43
5
0
160
$Torpedo$
17
1
40
1
Omega Mark 1
0
45
0
50
$Beam$
7
6
3
Phased Polaron Bank
0
1
15
5
10
1
0
40
$END_OF_SHIPDATA$
162
Omega
6
10
3
2
10
10
10
11
10
10
6000
1000
0
0
0
0
50

800
2
1
1
0
4200
9
1
2
1
80
1
3
800
0
0
375
1
2
167
$Torpedo$
20
1
20
5
Omega Mark 2
0
40
0
65
$Beam$
12
7
12
Phased Polaron Array
0
1
30
8
12
1
0
50
$END_OF_SHIPDATA$
163
Outpost I
6
12
3
0
0
0
0
0
0
0
10
0
0
0
0
0
1

3000
0
1
0
0
3600
1
0
0
0
62
2
0
0
0
0
12
0
0
-1
$Torpedo$
17
1
40
4
Omega Mark 1
0
45
0
50
$Beam$
6
5
8
Phased Polaron Emitter
0
1
10
3
7
1
0
15
$END_OF_SHIPDATA$
164
Outpost II
6
12
3
0
4
4
4
4
4
4
15
0
0
0
0
0
1

5000
2
1
0
0
15000
5
0
0
0
70
2
0
0
0
0
35
6
0
-1
$Torpedo$
17
1
40
5
Omega Mark 1
0
45
0
50
$Torpedo$
17
1
40
1
Omega Mark 1
0
45
180
50
$Beam$
10
6
15
Phased Polaron Bank
0
1
15
5
10
1
0
40
$Beam$
10
6
5
Phased Polaron Bank
0
1
15
5
10
1
180
40
$END_OF_SHIPDATA$
165
Outpost III
6
12
3
0
8
8
8
8
8
8
20
0
0
0
0
0
1

9000
2
1
1
0
22000
8
1
0
0
110
3
0
0
0
0
78
6
0
-1
$Torpedo$
20
1
20
6
Omega Mark 2
0
40
0
65
$Torpedo$
20
1
20
2
Omega Mark 2
0
40
180
65
$Beam$
12
7
16
Phased Polaron Array
0
1
30
8
12
1
0
50
$Beam$
12
7
6
Phased Polaron Array
0
1
30
8
12
1
180
50
$END_OF_SHIPDATA$
166
Resch
6
4
0
5
1
1
1
1
1
1
0
0
0
0
0
0
2

350
0
0
0
0
500
0
0
2
1
40
1
2
0
0
0
40
6
0
-1
$Torpedo$
17
1
20
2
Omega Mark 2
0
40
0
65
$Beam$
5
12
4
Polaron Cannon
0
1
5
1
11
2
0
90
$END_OF_SHIPDATA$
167
Sajin
6
10
2
2
2
2
3
2
3
3
2000
200
0
0
0
0
8

700
0
0
0
0
3000
2
0
2
1
60
1
0
200
0
0
76
1
0
-1
$Torpedo$
17
1
40
2
Omega Mark 1
0
45
0
50
$Beam$
6
5
8
Phased Polaron Emitter
0
1
10
3
7
1
0
15
$END_OF_SHIPDATA$
168
Samech
6
7
2
3
4
4
4
4
4
4
4000
300
0
0
0
0
10

800
0
0
0
0
4000
4
0
2
1
60
1
2
300
0
0
111
1
0
-1
$Torpedo$
17
1
40
3
Omega Mark 1
0
45
0
50
$Beam$
8
6
10
Phased Polaron Bank
0
1
15
5
10
1
0
40
$END_OF_SHIPDATA$
169
Samech II
6
7
2
5
11
11
11
12
11
12
4500
600
0
0
0
200
12

1200
4
1
0
0
5000
4
0
4
2
80
2
2
300
0
0
158
1
0
168
$Torpedo$
17
1
40
3
Omega Mark 1
0
45
0
50
$Beam$
8
6
10
Phased Polaron Bank
0
1
15
5
10
1
0
40
$END_OF_SHIPDATA$
170
Starbase I
6
13
3
0
2
2
2
2
2
2
10
0
0
0
0
0
1

10000
0
1
0
0
24000
3
0
0
0
70
2
0
0
0
0
50
3
0
-1
$Torpedo$
17
1
40
6
Omega Mark 1
0
45
0
50
$Torpedo$
17
1
40
2
Omega Mark 1
0
45
180
50
$Beam$
8
5
21
Phased Polaron Emitter
0
1
10
3
7
1
0
15
$Beam$
8
5
5
Phased Polaron Emitter
0
1
10
3
7
1
180
15
$END_OF_SHIPDATA$
171
Starbase II
6
13
3
0
6
6
6
6
6
6
20
0
0
0
0
0
1

11000
2
1
0
0
28000
6
1
0
0
110
3
0
0
0
0
69
3
0
-1
$Torpedo$
17
1
40
8
Omega Mark 1
0
45
0
50
$Torpedo$
17
1
40
2
Omega Mark 1
0
45
180
50
$Beam$
12
7
27
Phased Polaron Array
0
1
30
8
12
1
0
50
$Beam$
12
7
7
Phased Polaron Array
0
1
30
8
12
1
180
50
$END_OF_SHIPDATA$
172
Starbase III
6
13
3
0
10
10
10
10
10
10
40
0
0
0
0
0
1

29000
4
1
1
0
46000
10
1
0
0
150
4
0
0
0
0
221
3
0
-1
$Torpedo$
20
1
20
16
Omega Mark 2
0
40
0
65
$Torpedo$
20
1
20
4
Omega Mark 2
0
40
180
65
$Beam$
12
7
40
Phased Polaron Array
0
1
30
8
12
1
0
50
$Beam$
12
7
12
Phased Polaron Array
0
1
30
8
12
1
180
50
$END_OF_SHIPDATA$
173
Tzade
6
9
2
2
6
6
6
6
6
7
4000
300
0
0
0
0
16

900
0
1
0
0
7000
6
1
2
1
80
2
1
900
0
0
206
1
0
-1
$Torpedo$
20
1
40
3
Omega Mark 1
0
45
0
50
$Beam$
10
7
8
Phased Polaron Array
0
1
30
8
12
1
0
50
$END_OF_SHIPDATA$
174
Vi
6
11
3
1
9
9
9
9
10
9
10000
2000
0
0
0
0
30

1800
4
1
1
0
10000
9
1
2
0
90
1
2
800
0
0
441
3
1
-1
$Torpedo$
20
1
20
4
Omega Mark 2
0
40
0
65
$Beam$
12
7
12
Phased Polaron Array
0
1
30
8
12
1
0
50
$END_OF_SHIPDATA$
175
Alathis
255
7
1
3
1
1
1
1
2
1
0
0
0
0
0
0
3
Andromeda
700
0
0
0
0
900
1
0
1
1
40
1
2
0
0
0
35
3
0
-1
$Torpedo$
3
1
70
1
Andromeda B Class Tube
0
55
180
90
$Torpedo$
3
1
30
1
Standard Tube
0
45
0
90
$Beam$
4
12
6
Disruptor Cannon
0
0
5
1
11
2
0
45
$END_OF_SHIPDATA$
176
Anaerobic Macrob
255
14
1
6
0
0
0
0
0
0
0
0
0
0
0
0
1
Anaerobe Makrobe
800
2
1
0
1
0
0
0
1
2
20
1
2
0
0
0
0
0
0
-1
$Beam$
1
10
1
Tentacle
0
1
0
1
3
1
0
90
$END_OF_SHIPDATA$
177
Battlestation
255
14
3
0
0
0
0
0
0
0
0
0
0
0
0
0
1
Kampfstation
12000
4
1
1
1
8000
8
1
0
0
180
1
1
0
0
0
0
0
0
-1
$Beam$
18
20
18
Ultraphasic Beam
0
1
35
10
35
6
0
360
$END_OF_SHIPDATA$
178
Blizzard-Plasma Entity
255
14
3
7
4
4
4
4
4
4
0
0
0
0
0
0
1
Blizzard-Plasmawesen
6000
2
0
1
0
6000
6
1
2
2
40
2
2
0
0
0
0
0
0
-1
$Beam$
11
40
13
Ion Cluster Beam
0
1
25
3
25
5
0
180
$END_OF_SHIPDATA$
179
Bosean Type-1
255
14
1
7
1
1
1
1
1
1
0
0
0
0
0
0
1
Boseaner
300
0
0
0
1
2500
3
0
3
1
80
2
1
0
0
0
0
0
0
-1
$Beam$
5
30
4
Bosean Phase Shifter
1
0
30
2
5
1
0
60
$END_OF_SHIPDATA$
180
Bosean Type-2
255
14
1
6
3
3
3
3
3
3
0
0
0
0
0
0
1
Boseaner
400
2
0
0
1
4000
4
0
3
1
60
2
2
0
0
0
0
0
0
-1
$Beam$
7
30
4
Bosean Phase Shifter
1
0
30
2
5
1
0
60
$END_OF_SHIPDATA$
181
Bosean Type-3
255
14
2
5
5
5
5
5
5
5
0
0
0
0
0
0
1
Boseaner
500
2
0
0
1
5000
5
1
2
1
60
2
3
0
0
0
0
0
0
-1
$Beam$
10
30
6
Bosean Phase Shifter
1
0
30
2
5
1
0
60
$Beam$
10
30
3
Bosean Phase Shifter
1
0
30
2
5
1
180
60
$END_OF_SHIPDATA$
182
Bosean Type-4
255
14
2
5
7
7
7
7
7
7
0
0
0
0
0
0
1
Boseaner
1000
4
1
1
1
10000
9
1
1
0
80
3
4
0
0
0
0
0
0
-1
$Beam$
12
30
15
Bosean Phase Shifter
1
0
30
2
5
1
0
60
$Beam$
12
30
15
Bosean Phase Shifter
1
0
30
2
5
1
180
60
$END_OF_SHIPDATA$
183
Bremmeth
255
0
3
1
7
7
7
7
8
7
24000
15000
0
0
0
0
25
Azora
10800
4
1
1
0
6000
8
1
2
1
60
1
0
52000
0
6
469
4
6
209
$Beam$
8
8
36
Laser Beam Turret
0
0
20
2
3
1
0
360
$END_OF_SHIPDATA$
184
Chaw
255
11
3
1
1
1
1
2
2
2
5000
500
0
0
0
0
8
Chewark
1000
0
1
0
0
2500
2
0
1
0
60
0
0
400
0
0
84
3
1
-1
$Torpedo$
2
1
40
6
2nd class Tube
0
50
0
80
$Beam$
6
5
15
Laser Emitter
0
0
10
3
7
1
0
55
$END_OF_SHIPDATA$
185
Cheraw
255
10
3
2
4
4
4
5
5
5
7000
2500
0
0
0
0
10
Chewark
975
2
1
0
0
3200
4
0
2
0
60
0
0
300
0
0
122
3
1
184
$Torpedo$
3
1
30
5
Standard Tube
0
45
0
90
$Beam$
9
6
12
Laser Bank
0
0
15
5
10
1
0
80
$END_OF_SHIPDATA$
186
Coob
255
6
1
6
3
3
3
4
3
4
0
0
0
0
0
0
2
Adamar
780
0
1
0
0
1900
3
0
2
1
40
1
3
0
0
0
46
7
5
-1
$Torpedo$
14
1
60
1
Adamar Basic Tube
0
55
0
90
$Torpedo$
14
1
60
1
Adamar Basic Tube
0
55
180
90
$Beam$
5
5
6
Laser Emitter
0
0
10
3
7
1
0
55
$END_OF_SHIPDATA$
187
D'kar
255
9
2
2
2
3
2
2
2
3
2500
0
0
0
0
0
5
Vulmar
1000
0
0
0
0
3400
3
0
2
0
60
0
1
200
0
0
93
2
3
-1
$Torpedo$
3
1
40
4
Vulmar C Class Tube
0
60
0
140
$Beam$
6
16
10
Laser Cannon
0
0
5
1
11
2
0
55
$END_OF_SHIPDATA$
188
Eelen-Guard
255
13
3
0
0
0
0
0
0
0
0
0
0
0
0
0
1
Ehlen
30000
4
1
1
1
50000
4
0
0
0
0
0
0
0
0
0
0
0
0
-1
$Beam$
6
10
6
Continuum Ripples
1
0
200
15
10
12
0
360
$END_OF_SHIPDATA$
189
Exocren
255
10
2
1
7
8
7
7
8
8
10000
0
0
0
0
0
45
Zhordan
1300
4
1
1
0
6400
8
1
2
1
60
1
0
0
0
0
338
1
2
-1
$Torpedo$
22
1
12
1
Zhordan Pulsefire
0
45
0
90
$Beam$
8
400
2
Antiproton Cannon
0
0
5
15
35
1
0
90
$END_OF_SHIPDATA$
190
Exodan
255
8
1
3
2
3
2
2
2
3
0
0
0
0
0
0
6
Zhordan
680
0
1
0
0
2400
4
0
2
1
40
1
0
0
0
0
63
8
0
-1
$Torpedo$
10
1
12
1
Zhordan Pulsefire
0
45
0
90
$Beam$
3
13
5
Pulse Plasma Cannon
0
0
10
1
14
3
0
90
$END_OF_SHIPDATA$
191
F'kyte
255
3
1
5
2
2
2
3
3
2
0
0
0
0
0
0
1
Tarokyte
140
0
0
0
0
760
2
0
3
2
70
2
1
0
0
0
15
0
0
-1
$Beam$
4
5
3
Laser Emitter
0
0
10
3
7
1
0
55
$END_OF_SHIPDATA$
192
Gaballian Plagueship
255
14
2
4
1
1
1
1
1
1
0
0
0
0
0
0
1
Gaballianer
3000
2
1
0
1
2000
4
0
1
2
40
1
0
0
0
0
0
0
0
-1
$Beam$
1
10
1
Virus
0
0
0
10
50
1
0
10
$END_OF_SHIPDATA$
193
Gas Entity
255
14
3
2
0
0
0
0
0
0
0
0
0
0
0
0
1
Ionisierendes Gaswesen
2000
0
0
0
1
2000
1
0
1
1
20
1
0
0
0
0
0
0
0
-1
$Beam$
4
5
20
Ion Beam
0
0
20
4
12
1
0
180
$END_OF_SHIPDATA$
194
Havri
255
7
1
3
4
4
4
4
4
4
0
0
0
0
0
0
6
Taroko
700
0
0
0
0
2400
1
0
1
0
50
1
3
20
0
0
53
0
0
-1
$Torpedo$
3
1
40
1
Tarokohe Mark 1
0
45
0
90
$Torpedo$
3
1
40
1
Tarokohe Mark 1
0
45
180
90
$Beam$
9
6
6
Laser Bank
0
0
15
5
10
1
0
80
$Beam$
9
6
2
Laser Bank
0
0
15
5
10
1
180
80
$END_OF_SHIPDATA$
195
Havron
255
6
1
5
2
2
2
3
2
2
0
0
0
0
0
0
3
Taroko
400
0
0
0
0
1300
1
0
2
1
30
0
2
0
0
0
29
0
0
-1
$Torpedo$
2
1
40
1
Tarokohe Mark 1
0
45
0
90
$Beam$
5
6
4
Laser Bank
0
0
15
5
10
1
0
80
$Beam$
5
6
1
Laser Bank
0
0
15
5
10
1
180
80
$END_OF_SHIPDATA$
196
Heres
255
1
0
2
0
2
0
2
2
0
569
0
0
0
0
0
2
Herakles
300
0
0
0
0
750
1
0
2
2
10
0
0
0
2
0
12
0
0
-1
$Beam$
2
7
1
Disruptor Array
0
0
30
8
12
1
0
75
$END_OF_SHIPDATA$
197
Herok
255
6
1
4
3
4
4
5
4
4
4460
2700
0
0
0
0
7
Herakles
1350
0
1
0
0
2850
4
1
3
1
70
2
2
0
0
0
79
2
0
-1
$Torpedo$
25
1
3
5
Rapidfire Microtube
1
40
0
60
$Beam$
8
8
7
Disruptor Beam Turret
0
0
20
2
3
1
0
360
$END_OF_SHIPDATA$
198
Hiro'akka
255
10
2
3
9
9
9
9
9
9
4000
0
0
0
0
0
20
Hiro'akka
1000
4
1
1
0
2300
7
1
4
1
80
2
3
45
0
0
177
3
0
-1
$Torpedo$
11
3
100
3
EMP Triplefire
0
40
0
100
$Torpedo$
11
3
100
1
EMP Triplefire
0
40
180
100
$Beam$
16
85
16
Heavy Disruptor Cannon
0
0
10
1
24
1
0
40
$Beam$
10
14
8
Disruptor Cannon Turret
0
0
15
1
17
4
0
360
$END_OF_SHIPDATA$
199
Hiro'ka
255
4
0
7
4
4
4
4
4
4
0
0
0
0
0
0
1
Hiro'akka
600
2
1
0
0
1500
4
0
2
2
30
1
2
0
0
0
43
5
8
-1
$Beam$
10
12
8
Disruptor Cannon
0
0
5
1
11
2
0
45
$END_OF_SHIPDATA$
200
Horath
255
7
1
1
5
5
5
5
5
5
6000
0
0
0
0
0
15
Hazet
300
2
0
0
0
2000
3
0
2
0
20
0
0
0
0
0
72
1
0
-1
$Beam$
8
26
6
Heavy Pulse Disruptor Cannon
0
0
10
1
15
3
0
40
$Beam$
10
13
5
Pulse Disruptor Cannon
0
0
10
1
14
3
20
60
$Beam$
10
13
5
Pulse Disruptor Cannon
0
0
10
1
14
3
340
60
$END_OF_SHIPDATA$
201
Imp
255
4
0
5
0
0
0
0
0
0
0
0
0
0
0
0
1
Baflid
400
0
1
0
0
500
0
0
1
0
20
0
0
0
0
0
14
0
0
-1
$Beam$
5
12
4
Plasma Cannon
0
0
5
1
11
2
0
80
$END_OF_SHIPDATA$
202
Iopra
255
5
0
5
3
3
3
3
3
3
0
0
0
0
0
0
2
Delari
285
0
1
0
0
1200
3
0
2
1
70
1
2
0
0
0
27
0
0
-1
$Torpedo$
2
1
40
1
2nd class Tube
0
50
180
80
$Beam$
4
5
5
Laser Emitter
0
0
10
3
7
1
0
55
$END_OF_SHIPDATA$
203
Isotopospheric Entity
255
14
2
4
3
3
3
3
3
3
0
0
0
0
0
0
1
Isotoposphaerisches Wesen
9000
0
0
0
0
4000
7
1
1
2
100
1
5
0
0
0
0
0
0
-1
$Torpedo$
25
3
5
10
Isotopic Tube
0
70
0
50
$END_OF_SHIPDATA$
204
Jool
255
7
1
3
1
1
1
1
1
1
0
0
0
0
0
0
3
Adamar
540
0
0
0
0
1400
2
0
1
1
35
1
1
0
0
0
34
7
0
-1
$Torpedo$
14
1
60
3
Adamar Basic Tube
0
55
0
90
$Beam$
2
5
5
Laser Emitter
0
0
10
3
7
1
0
55
$END_OF_SHIPDATA$
205
K'tyr
255
7
1
2
1
1
1
1
1
1
500
0
0
0
0
0
4
Vulmar
700
0
0
0
0
2100
1
0
1
1
60
0
1
50
0
0
50
2
0
-1
$Torpedo$
3
1
40
2
Vulmar C Class Tube
0
60
0
140
$Beam$
5
16
6
Laser Cannon
0
0
5
1
11
2
0
55
$END_OF_SHIPDATA$
206
Kororr
255
11
2
1
5
5
5
5
5
5
8800
0
0
0
0
0
14
Karorr
800
0
1
0
0
2000
2
0
2
0
60
1
0
0
0
0
101
1
0
-1
$Beam$
8
12
21
Disruptor Cannon
0
0
5
1
11
2
0
45
$Beam$
10
7
15
Disruptor Bank
0
0
15
5
10
1
0
60
$END_OF_SHIPDATA$
207
Korr
255
5
1
3
2
2
2
2
2
2
0
0
0
0
0
0
2
Karorr
400
0
1
0
0
2000
0
0
1
1
60
1
1
0
0
0
31
0
0
-1
$Beam$
4
12
4
Disruptor Cannon
0
0
5
1
11
2
0
45
$END_OF_SHIPDATA$
208
Kryonit Entity
255
14
3
3
5
5
5
5
5
5
0
0
0
0
0
0
1
Kryonitwesen
1000
0
0
0
1
3000
5
1
1
0
0
0
0
0
0
0
0
0
0
-1
$Beam$
8
100
5
Kryonit Suprabeam
1
0
50
10
50
1
0
180
$END_OF_SHIPDATA$
209
Lemmeth
255
0
3
1
3
3
3
3
4
3
7500
5000
0
0
0
0
15
Azora
2500
2
1
0
0
3000
4
0
1
0
0
0
0
24000
0
3
108
6
0
-1
$Beam$
5
5
18
Laser Cannon Turret
0
0
15
1
17
4
0
360
$END_OF_SHIPDATA$
210
Levan
255
8
1
4
4
4
4
5
4
5
0
0
0
0
0
0
7
Leva
600
0
1
0
0
1900
3
0
2
1
50
0
0
0
0
0
44
0
0
-1
$Torpedo$
16
2
10
3
Levan Microtube
1
50
0
180
$Torpedo$
16
2
10
2
Levan Microtube
1
50
180
180
$Beam$
6
6
6
Laser Bank
0
0
15
5
10
1
0
80
$END_OF_SHIPDATA$
211
Levar
255
6
0
3
1
1
1
1
1
1
0
0
0
0
0
0
2
Leva
240
0
1
0
0
750
1
0
1
0
40
0
0
0
0
0
16
7
0
-1
$Torpedo$
16
2
10
1
Levan Microtube
1
50
0
180
$Beam$
5
5
5
Laser Emitter
0
0
10
3
7
1
0
55
$END_OF_SHIPDATA$
212
Midway-Battleship
255
14
3
8
7
7
7
7
7
7
0
0
0
0
0
0
1
Midway-Zeitreisende
24000
4
1
0
0
32000
9
0
4
2
200
3
6
0
0
0
0
0
0
-1
$Torpedo$
19
1
5
9
Midway Class Z Tube
0
90
0
180
$END_OF_SHIPDATA$
213
Morlock-Raider
255
14
1
7
1
1
1
1
1
1
0
0
0
0
0
0
1
Morlock-Raider
2300
2
0
0
1
1800
4
0
2
1
80
2
2
0
0
0
0
8
5
-1
$Beam$
1
95
1
Pulse Proton Cannon
0
0
10
1
14
3
0
90
$END_OF_SHIPDATA$
214
Mowroph
255
4
0
8
7
7
7
7
7
7
1500
0
0
0
0
0
5
Remdomas
200
4
1
1
0
1000
7
1
3
2
40
0
3
0
0
0
39
5
0
-1
$Beam$
20
95
1
Pulse Proton Cannon
0
0
10
1
14
3
0
90
$END_OF_SHIPDATA$
215
Mozvra
255
6
1
3
0
0
0
0
0
1
0
0
0
0
0
0
5
Mozwar
500
0
1
0
0
0
0
0
2
0
20
0
0
0
0
0
35
8
5
-1
$Beam$
4
6
11
Disruptor Emitter
0
0
10
3
7
1
15
45
$Beam$
4
6
11
Disruptor Emitter
0
0
10
3
7
1
345
45
$END_OF_SHIPDATA$
216
Mrow
255
3
0
6
0
1
0
0
2
0
0
0
0
0
0
0
1
Remdomas
150
0
0
0
0
570
1
0
2
2
75
2
2
0
0
0
9
9
0
-1
$Beam$
7
12
1
Polaron Cannon
0
1
5
1
11
2
0
90
$END_OF_SHIPDATA$
217
P'tec
255
4
0
5
0
0
0
0
0
0
1000
0
0
0
0
0
1
Vulmar
250
0
1
0
1
750
1
0
2
2
60
2
2
0
0
0
16
2
0
-1
$Torpedo$
2
1
70
1
Vulmar B Class Tube
0
55
0
110
$Beam$
3
16
2
Laser Cannon
0
0
5
1
11
2
0
55
$END_OF_SHIPDATA$
218
Pairos
255
11
2
1
6
6
6
5
6
5
0
0
0
0
0
0
18
Delari
3200
2
1
1
1
7800
5
1
2
0
75
1
4
0
0
0
300
3
1
-1
$Torpedo$
3
1
30
10
Standard Tube
0
45
0
90
$Torpedo$
3
1
30
5
Standard Tube
0
45
180
90
$Beam$
10
5
10
Laser Emitter
0
0
10
3
7
1
0
55
$Beam$
8
5
8
Laser Cannon Turret
0
0
15
1
17
4
0
360
$Beam$
8
5
4
Laser Cannon Turret
0
0
15
1
17
4
90
360
$Beam$
8
5
4
Laser Cannon Turret
0
0
15
1
17
4
270
360
$Beam$
8
8
8
Laser Beam Turret
0
0
20
2
3
1
180
360
$END_OF_SHIPDATA$
219
Palqa
255
3
1
6
5
5
5
5
5
5
0
0
0
0
0
0
2
Palan
340
0
0
0
0
1800
2
0
2
1
150
3
0
0
0
0
29
9
0
-1
$Torpedo$
2
1
50
1
S2 Torpedotube
0
50
0
80
$Beam$
4
12
3
Disruptor Cannon
0
0
5
1
11
2
0
45
$Beam$
4
12
3
Disruptor Cannon
0
0
5
1
11
2
180
45
$END_OF_SHIPDATA$
220
Paqlan
255
0
2
3
1
1
1
1
1
1
0
0
0
0
0
0
3
Palan
100
0
0
0
0
1000
0
0
1
0
60
1
0
3000
0
0
19
0
0
-1
$Torpedo$
1
1
100
1
S1 Torpedotube
0
50
180
70
$Beam$
3
6
2
Disruptor Emitter
0
0
10
3
7
1
10
45
$Beam$
3
6
2
Disruptor Emitter
0
0
10
3
7
1
350
45
$Beam$
3
6
1
Disruptor Emitter
0
0
10
3
7
1
180
45
$END_OF_SHIPDATA$
221
Pertawk
255
8
1
3
1
2
2
2
1
2
0
0
0
0
0
0
3
Deshant
400
0
0
0
0
1200
2
0
2
1
40
1
1
0
0
0
37
7
5
-1
$Torpedo$
3
1
40
2
Deshant C Class Tube
0
60
0
105
$Beam$
4
7
5
Disruptor Bank
0
0
15
5
10
1
0
60
$END_OF_SHIPDATA$
222
Phimon
255
7
1
3
3
4
3
3
3
4
0
0
0
0
0
0
6
Nundosa
970
0
1
0
0
2300
2
0
1
1
50
1
3
0
0
0
68
3
0
-1
$Torpedo$
6
1
50
3
S2 Torpedotube
0
50
0
80
$Beam$
7
6
10
Magneton Emitter
0
1
10
3
7
1
0
70
$END_OF_SHIPDATA$
223
Prehtawak
255
9
2
1
7
7
6
6
7
6
0
0
0
0
0
0
7
Deshant
1400
0
0
0
0
3000
5
1
2
1
60
1
2
0
0
0
87
0
0
-1
$Torpedo$
3
1
40
3
Deshant C Class Tube
0
60
0
105
$Beam$
10
7
10
Disruptor Bank
0
0
15
5
10
1
0
60
$END_OF_SHIPDATA$
224
Psimon
255
5
1
4
1
1
1
1
1
1
570
230
0
0
0
0
2
Nundosa
270
0
1
0
1
700
0
0
1
1
60
1
1
0
0
0
17
7
0
-1
$Torpedo$
1
1
100
1
S1 Torpedotube
0
50
0
70
$Beam$
3
6
5
Magneton Emitter
0
1
10
3
7
1
0
70
$END_OF_SHIPDATA$
225
Relis
255
9
2
2
8
8
8
9
8
9
5500
0
0
0
0
0
22
Andromeda
1210
2
0
0
0
6720
9
1
4
1
90
0
3
350
0
0
191
3
1
-1
$Torpedo$
12
1
40
3
Andromeda C Class Tube
0
60
180
100
$Torpedo$
22
1
40
2
Andromeda C Class Tube
0
60
0
100
$Beam$
10
8
3
Disruptor Beam Turret
0
0
20
2
3
1
0
360
$Beam$
11
14
9
Disruptor Cannon Turret
0
0
15
1
17
4
0
360
$END_OF_SHIPDATA$
226
Rogala
255
7
1
4
1
0
1
0
1
0
400
0
0
0
0
0
3
Drizz
460
0
0
0
0
1900
2
0
1
1
40
1
0
0
0
0
34
0
0
-1
$Torpedo$
10
1
40
1
Drizzi Mark 1
0
45
0
60
$Beam$
4
5
4
Phased Polaron Emitter
0
1
10
3
7
1
0
15
$END_OF_SHIPDATA$
227
Rovold
255
5
1
6
4
5
5
4
5
4
3000
500
250
0
0
0
1
Drizz
380
0
0
0
1
2400
6
0
3
2
100
2
0
10
0
0
54
8
9
-1
$Torpedo$
17
1
40
1
Drizzi Mark 1
0
45
0
60
$Beam$
8
6
6
Phased Polaron Bank
0
1
15
5
10
1
0
40
$END_OF_SHIPDATA$
228
Sevriak
255
6
1
5
3
2
2
3
3
3
0
0
0
0
0
0
5
Sevar
800
0
1
0
1
1000
2
0
2
1
80
1
2
60
0
0
40
5
8
-1
$Torpedo$
1
1
100
1
S1 Torpedotube
0
50
180
70
$Beam$
9
12
5
Disruptor Cannon
0
0
5
1
11
2
0
45
$Beam$
8
6
6
Disruptor Emitter
0
0
10
3
7
1
180
45
$END_OF_SHIPDATA$
229
Sevrios
255
10
2
3
7
6
6
7
7
7
0
0
0
0
0
0
13
Sevar
2600
2
1
1
0
6700
8
1
2
1
100
1
3
0
0
0
206
3
0
-1
$Torpedo$
7
1
16
1
S3 Torpedotube
0
40
0
90
$Torpedo$
5
1
100
1
S1 Torpedotube
0
50
180
70
$Beam$
15
12
6
Disruptor Cannon
0
0
5
1
11
2
0
45
$Beam$
15
12
6
Disruptor Cannon
0
0
5
1
11
2
180
45
$Beam$
15
6
10
Disruptor Emitter
0
0
10
3
7
1
0
45
$END_OF_SHIPDATA$
230
Siard
255
4
0
7
4
4
4
5
4
4
0
0
0
0
0
0
1
Ankara
60
0
0
0
0
300
4
0
4
2
30
1
1
0
0
0
20
0
0
-1
$Torpedo$
4
1
3
1
Rapidfire Microtube
1
40
0
60
$Torpedo$
3
1
30
1
Standard Tube
0
45
180
90
$Beam$
4
9
1
Pulse Laser Gun
0
0
10
1
8
4
0
25
$END_OF_SHIPDATA$
231
Sidar
255
3
0
6
0
0
0
1
0
0
150
0
0
0
0
0
1
Ankara
85
0
0
0
0
150
1
0
2
2
50
3
0
0
0
0
9
9
0
-1
$Beam$
1
9
2
Pulse Laser Gun
0
0
10
1
8
4
0
25
$END_OF_SHIPDATA$
232
Storg
255
6
1
7
5
5
5
5
5
5
0
0
0
0
0
0
7
Storgor
800
0
0
0
1
2000
5
1
3
2
100
2
4
30
0
0
61
7
9
-1
$Torpedo$
2
3
50
1
Type 2 Burstfire
0
40
0
100
$Beam$
6
22
4
Isolytic Cannon
0
0
5
1
11
3
0
35
$END_OF_SHIPDATA$
233
Storgre
255
11
2
3
8
8
9
9
8
8
32807
6800
8550
10000
0
2000
38
Storgor
1000
4
1
1
1
3000
9
1
4
2
150
2
5
0
0
0
257
3
9
-1
$Torpedo$
12
1
12
2
Storgor Pulsefire
0
45
180
90
$Torpedo$
21
4
40
1
Type 4 Burstfire
0
40
0
120
$Beam$
15
39
8
Isolytic Pulse Cannon
0
0
10
1
18
2
0
55
$END_OF_SHIPDATA$
234
T'Kyte
255
5
1
6
4
4
4
5
5
5
0
0
0
0
0
0
8
Tarokyte
380
0
0
0
0
1600
5
0
2
1
55
0
2
0
0
0
40
5
0
-1
$Beam$
7
6
5
Laser Bank
0
0
15
5
10
1
0
80
$Beam$
7
6
3
Laser Bank
0
0
15
5
10
1
180
80
$END_OF_SHIPDATA$
235
Tairi
255
5
1
5
7
8
8
8
7
8
0
0
0
0
0
0
15
Botha
1200
2
1
1
0
3300
7
1
3
1
50
2
6
0
0
0
123
7
0
-1
$Torpedo$
12
2
50
2
Type 1 Burstfire
0
40
0
95
$Torpedo$
4
2
10
1
TK Microtube
1
45
180
180
$Beam$
9
8
5
Disruptor Beam Turret
0
0
20
2
3
1
0
360
$Beam$
9
8
3
Disruptor Beam Turret
0
0
20
2
3
1
180
360
$END_OF_SHIPDATA$
236
Talane
255
8
1
4
2
2
2
3
3
3
0
0
0
0
0
0
5
Brane
700
0
1
0
0
2400
4
0
2
1
35
1
1
0
0
0
63
8
5
-1
$Torpedo$
26
1
70
3
Brane Level 2 Tube
0
45
0
40
$Torpedo$
27
1
50
1
Brane Level 3 Tube
0
45
0
20
$Beam$
5
7
7
Phased Polaron Array
0
1
30
8
12
1
0
50
$Beam$
3
90
2
Heavy Polaron Cannon
0
1
10
1
24
1
0
5
$END_OF_SHIPDATA$
237
Talran
255
9
2
3
6
7
6
6
6
7
7000
600
0
0
0
0
23
Brane
1800
2
0
0
0
6500
7
1
2
1
80
2
2
600
0
0
175
3
0
-1
$Torpedo$
27
1
70
4
Brane Level 2 Tube
0
45
0
40
$Torpedo$
28
1
50
2
Brane Level 3 Tube
0
45
0
20
$Beam$
9
7
15
Phased Polaron Array
0
1
30
8
12
1
0
50
$Beam$
7
90
4
Heavy Polaron Cannon
0
1
10
1
24
1
0
5
$Beam$
6
26
3
Heavy Pulse Polaron Cannon
0
1
10
1
15
3
0
15
$END_OF_SHIPDATA$
238
Tarok'ka
255
6
0
4
0
0
0
0
0
0
0
0
0
0
0
0
1
Tarok
300
0
0
0
0
700
1
0
1
1
0
0
1
0
0
0
20
5
6
-1
$Torpedo$
10
1
100
1
Tarokan Medium Power
0
50
0
60
$Beam$
3
8
4
Disruptor Beam Turret
0
0
20
2
3
1
0
360
$END_OF_SHIPDATA$
239
Tarok'ta
255
7
2
3
7
7
7
7
7
7
6000
0
0
0
0
0
10
Tarok
900
2
0
0
0
4800
6
0
3
1
60
1
1
700
0
0
131
3
6
-1
$Torpedo$
11
1
50
4
Tarokan High Power
0
45
0
90
$Beam$
10
8
10
Disruptor Beam Turret
0
0
20
2
3
1
0
360
$END_OF_SHIPDATA$
240
Throglodyt
255
6
2
4
4
4
4
4
4
4
0
0
0
0
0
0
2
Baflid
600
0
1
0
0
1800
2
0
1
1
40
1
1
0
0
0
41
0
0
-1
$Beam$
7
6
3
Laser Bank
0
0
15
5
10
1
25
80
$Beam$
7
6
3
Laser Bank
0
0
15
5
10
1
335
80
$END_OF_SHIPDATA$
241
Tori
255
3
0
7
5
5
5
5
5
5
0
0
0
0
0
0
6
Botha
500
0
0
0
0
1200
5
0
3
2
100
3
6
0
0
0
26
0
0
-1
$Beam$
7
7
2
Disruptor Bank
0
0
15
5
10
1
0
60
$END_OF_SHIPDATA$
242
Vawr're
255
4
0
6
0
0
0
0
0
0
0
0
0
0
0
0
1
Vawdor
350
0
1
0
0
1000
1
0
1
1
60
0
0
0
0
0
24
0
0
-1
$Beam$
4
36
2
Particle Cannon
0
0
5
1
11
2
0
45
$END_OF_SHIPDATA$
243
Vawri
255
4
1
5
5
6
5
5
5
6
2800
0
0
0
0
0
5
Vawdor
600
2
1
0
0
2500
6
1
3
2
80
2
1
0
0
0
71
8
2
-1
$Torpedo$
23
1
16
1
S3 Torpedotube
0
40
0
90
$Beam$
16
36
1
Particle Cannon
0
0
5
1
11
2
0
45
$Beam$
12
16
2
Pulse Particle Cannon
0
0
10
1
14
3
0
60
$END_OF_SHIPDATA$
244
Vik
255
10
2
2
8
8
8
8
8
8
3500
0
0
0
0
0
27
Vikarmo
2000
2
0
0
0
3400
5
1
4
1
80
1
0
450
0
0
158
2
0
-1
$Torpedo$
23
1
60
1
Vikarmo Model 1
0
50
0
90
$Torpedo$
13
1
40
3
Vikarmo Model 2
0
45
180
90
$Beam$
18
1
10
Isokinetic Cannon
0
1
5
1
1
10
0
45
$END_OF_SHIPDATA$
245
Vika
255
7
1
3
0
1
1
1
0
1
0
0
0
0
0
0
6
Vikarmo
1200
0
0
0
0
1600
2
0
1
1
30
2
0
0
0
0
50
1
3
-1
$Torpedo$
23
1
60
2
Vikarmo Model 1
0
50
0
90
$Beam$
5
1
3
Isokinetic Cannon
0
1
5
1
1
10
0
45
$Beam$
5
1
1
Isokinetic Cannon
0
1
5
1
1
10
180
45
$END_OF_SHIPDATA$
246
Vlorth
255
8
1
2
3
4
3
3
3
4
2000
0
0
0
0
0
10
Hazet
450
0
0
0
0
1500
1
0
2
0
40
0
1
50
0
0
44
1
0
-1
$Beam$
9
13
12
Pulse Disruptor Cannon
0
0
10
1
14
3
0
60
$END_OF_SHIPDATA$
247
Vorog
255
6
2
5
7
8
9
9
7
8
0
0
0
0
0
0
11
Vorgor
2400
2
0
1
1
4000
9
1
3
1
150
2
2
1500
0
0
147
0
0
-1
$Torpedo$
23
3
50
2
Type 2 Burstfire
0
40
0
100
$Beam$
7
39
4
Isolytic Pulse Cannon
0
0
10
1
18
2
0
55
$Beam$
12
22
2
Isolytic Cannon
0
0
5
1
11
3
180
35
$END_OF_SHIPDATA$
248
Vorokin
255
5
0
4
2
2
3
3
2
2
1000
0
0
0
0
0
1
Vorgor
200
0
1
0
0
900
2
0
3
2
140
2
1
0
0
0
26
8
0
-1
$Beam$
5
22
3
Isolytic Cannon
0
0
5
1
11
3
0
35
$END_OF_SHIPDATA$
249
Xiborag
255
10
2
1
2
3
2
2
2
3
2000
0
0
0
0
0
9
Xiborg
1000
0
1
0
0
1400
3
0
1
0
40
0
0
200
0
0
62
1
3
-1
$Beam$
8
7
10
Forced Plasma Emitter
0
0
10
3
5
1
0
70
$Beam$
8
7
4
Forced Plasma Emitter
0
0
10
3
5
1
180
70
$END_OF_SHIPDATA$
250
Xiboram
255
9
1
1
1
2
1
1
1
1
300
0
0
0
0
0
4
Xiborg
800
0
1
0
0
1100
2
0
2
1
50
0
1
0
0
0
35
0
0
-1
$Beam$
10
7
6
Forced Plasma Emitter
0
0
10
3
5
1
0
70
$END_OF_SHIPDATA$
251
Xibram
255
6
0
2
0
0
0
0
0
0
0
0
0
0
0
0
1
Xiborg
600
0
1
0
1
900
1
0
1
0
50
0
1
0
0
0
24
0
0
-1
$Beam$
8
12
6
Disruptor Cannon
0
0
5
1
11
2
0
45
$END_OF_SHIPDATA$
252
Yiman
255
3
0
1
3
3
3
3
3
3
0
0
0
0
0
0
2
Yimanda
190
0
0
0
0
800
3
0
2
2
80
2
5
0
0
0
20
8
0
-1
$Beam$
4
16
4
Laser Cannon
0
0
5
1
11
2
0
55
$END_OF_SHIPDATA$
253
Yimar
255
4
0
2
0
1
0
1
0
0
0
0
0
0
0
0
1
Yimanda
200
0
0
0
0
1100
1
0
2
2
60
1
4
0
0
0
18
8
0
-1
$Beam$
2
6
4
Laser Bank
0
0
15
5
10
1
0
80
$END_OF_SHIPDATA$
254
Zvska
255
8
1
3
6
5
5
5
5
6
0
0
0
0
0
0
1
Mozwar
1500
2
1
0
0
0
0
0
2
1
30
0
0
1000
0
0
85
8
0
215
$Torpedo$
5
1
60
2
Mozwar Model 1
0
50
180
90
$Beam$
6
13
1
Pulse Disruptor Cannon
0
0
10
1
14
3
0
60
$Beam$
6
7
2
Disruptor Bank
0
0
15
5
10
1
0
60
$Beam$
8
26
4
Heavy Pulse Disruptor Cannon
0
0
10
1
15
3
0
40
$Beam$
10
8
12
Disruptor Beam Turret
0
0
20
2
3
1
0
360
$END_OF_SHIPDATA$
